ANSI-C/cC++ Compiler for HC12 V-5.0.41 Build 10203, Jul 23 2010

    1:  // IDS-CAN_DTC_Manager.c
    2:  // DTC manager for IDS-CAN
    3:  // Version 2.8
    4:  // (c) 2017 Innovative Design Solutions, Inc.
    5:  // All rights reserved
    6:  
    7:  // Each DTC code represents a single diagnostic failure detected in the system
    8:  //
    9:  // DTCs reporting and management is done in a manner similar to that used by automotive OEMs
   10:  //
   11:  // A DTC can be in one of three states:
   12:  //     Active - DTC is presently debounced in the matured state
   13:  //     Stored - DTC has matured in the last 127 power cycles
   14:  //     Cleared - DTC has not matured in at least 127 power cycles
   15:  //
   16:  // DTCs record two pieces of information:
   17:  //           Active - 1 bit - true if DTC is mature, false if DTC is not mature
   18:  //    CyclesCounter - 7 bits - indicates number of power/boot/ignition/etc cycles since DTC last matured
   19:  //
   20:  // DTC maturation:
   21:  //     Diagnostic conditions are monitored by the application.
   22:  //     The application can call IDS_CAN_MatureDTC() to mature/de-mature the DTC
   23:  //     DTCs are debounced automatically by this module
   24:  //
   25:  //     When the DTC debounces to "active", the Active flag is set to TRUE, and the CycleCounter is set to 1
   26:  //     When the DTC debounces to "inactive", the Active flag is set to FALSE, the CycleCounter remains unchanged
   27:  //
   28:  //     The Active flag will automatically clear whenever the CycleCounter overflows
   29:  //
   30:  // DTC cycle counting
   31:  //     A CyclesCounter is maintained, which indicates the number of power/boot/etc cycles since the DTC last matured
   32:  //     The value is set to 1 whenever the DTC matures, indicating that the DTC is stored
   33:  //
   34:  //     When the value is non-zero, it will be incremented every reboot, or upon application request via IDS_CAN_IncrementDTCCyclesCounter()
   35:  //     Therefore, a non-zero value indicates how many power cycles since the DTC last matured
   36:  //
   37:  //     The value will overflow at 128 counts.
   38:  //     When the counter overflows, the Active flag is automatically cleared, as it has been 128 cycles since the DTC matured
   39:  
   40:  // History
   41:  // 1.0  -- First revision
   42:  // 2.7  -- Updated to use ASSERT() macro
   43:  // 2.8  -- Linted
   44:  
   45:  #include "global.h"
   46:  
   47:  #ifdef DECLARE_SUPPORTED_IDS_CAN_DTCS
   48:  
   49:  ////////////////////////////////////////////////////////////////////////////////
   50:  ////////////////////////////////////////////////////////////////////////////////
   51:  ////////////////////////////////////////////////////////////////////////////////
   52:  ////////////////////////////////////////////////////////////////////////////////
   53:  
   54:  #ifdef HEADER
   55:  
   56:  // enumerate DTCs by name
   57:  typedef enum {
   58:  	#undef DECLARE_DTC
   59:  	#define DECLARE_DTC(dtc, debounce) dtc
   60:  	#undef DEFINE_DTC
   61:  	#define DEFINE_DTC(id, name) name,
   62:  	DECLARE_SUPPORTED_IDS_CAN_DTCS
   63:  	NUM_IDS_CAN_DTCS
   64:  } IDS_CAN_DTC;
   65:  
   66:  // define structure for reporting DTCs
   67:  typedef struct { uint16 ID; uint8 Status; } IDS_CAN_DTC_INFO;
   68:  
   69:  // background management tasks
   70:  void _IDS_CAN_DTC_Init(void);     // private function do not call, instead call IDS_CAN_Init()
   71:  void _IDS_CAN_DTC_Task10ms(void); // private function do not call, instead call IDS_CAN_Task()
   72:  
   73:  // user API
   74:  void IDS_CAN_SetDTC(IDS_CAN_DTC dtc);                        // sets the DTC to active (debounce set to max value) and resets cycle count to 1
   75:  void IDS_CAN_ClearDTC(IDS_CAN_DTC dtc);                      // clears the DTC active state (debounce counter cleared)
   76:  void IDS_CAN_MatureDTC(IDS_CAN_DTC dtc, uint8 dtc_detected); // matures/de-matures Active DTCs by incrementing/decrementing the debounce counter
   77:  void IDS_CAN_IncrementDTCCyclesCounter(void);                // increments all non-zero cycle counters by 1
   78:  
   79:  // DTC state querying
   80:  uint16 IDS_CAN_GetNumSupportedDTCs(void);              // returns the number of DTCs supported
   81:  uint16 IDS_CAN_GetNumActiveDTCs(void);                 // returns the number of DTCs that are in the active state
   82:  uint16 IDS_CAN_GetNumStoredDTCs(void);                 // returns the number of DTCs that are in the stored state
   83:  uint8 IDS_CAN_AreAnyDTCsActive(void);                  // returns non-zero if one or more DTCs are active
   84:  uint8 IDS_CAN_AreAnyDTCsStored(void);                  // returns non-zero if one or more DTCs are stored
   85:  uint8 IDS_CAN_IsDTCActive(IDS_CAN_DTC dtc);            // returns non-zero if DTC is active
   86:  uint8 IDS_CAN_IsDTCStored(IDS_CAN_DTC dtc);            // returns non-zero if DTC is stored
   87:  IDS_CAN_DTC_INFO IDS_CAN_GetDTCInfo(IDS_CAN_DTC dtc);  // returns DTC ID and status byte
   88:  
   89:  // global DTC clearing
   90:  void IDS_CAN_ClearActiveDTCs(void);  // clears all active DTCs and debounce values (stored counters are not modified)
   91:  void IDS_CAN_ClearStoredDTCs(void);  // clears stored cycle counters for all DTCs that are not Active
   92:  void IDS_CAN_ClearAllDTCs(void);     // clears all active and stored DTCs, and resets debounce values to zero
   93:  
   94:  #else // HEADER
   95:  
   96:  ////////////////////////////////////////////////////////////////////////////////
   97:  ////////////////////////////////////////////////////////////////////////////////
   98:  ////////////////////////////////////////////////////////////////////////////////
   99:  ////////////////////////////////////////////////////////////////////////////////
  100:  
  101:  // determine smallest variable size that can hold debounce information
  102:  #undef DECLARE_DTC
  103:  #define DECLARE_DTC(dtc, debounce) | (debounce)
  104:  #if (0 DECLARE_SUPPORTED_IDS_CAN_DTCS) > 255
  105:  	typedef uint16 DEBOUNCE;
  106:  #else
  107:  	typedef uint8 DEBOUNCE;
  108:  #endif
  109:  
  110:  // create ROM table of DTC debounce maximums
  111:  static const DEBOUNCE DEBOUNCE_MAX[NUM_IDS_CAN_DTCS] = {
  112:  	#undef DECLARE_DTC
  113:  	#define DECLARE_DTC(dtc, debounce) (debounce),
  114:  	DECLARE_SUPPORTED_IDS_CAN_DTCS
  115:  };
  116:  
  117:  // allocate RAM for DTCs
  118:  static struct
  119:  {
  120:  	uint8 Status[NUM_IDS_CAN_DTCS];      // BIT7 = active   BIT0-6 = power cycles counter (stored)
  121:  	DEBOUNCE Debounce[NUM_IDS_CAN_DTCS]; // Debounce maturation value for DTC
  122:  } DTC;
  123:  
  124:  #define IS_ACTIVE(dtc) (DTC.Status[dtc] & 0x80)
  125:  #define IS_STORED(dtc) (DTC.Status[dtc])
  126:  
  127:  ////////////////////////////////////////
  128:  ////////////////////////////////////////
  129:  ////////////////////////////////////////
  130:  ////////////////////////////////////////
  131:  
  132:  #ifdef IDS_CAN_DTC_NUM_STORAGE_BLOCKS
  133:  
  134:  // DTC flushing to storage
  135:  //
  136:  // Storage is performed on a block device, which provides for the following operations:
  137:  //     Bulk erase of a block
  138:  //     8-bit random block reads
  139:  //     32-bit aligned block writes
  140:  //
  141:  // DTC storage blocks are arranged as a block header, followed by an array of discrete fixed-sizedchunks
  142:  //     BLOCK HEADER
  143:  //     CHUNK 1
  144:  //     CHUNK 2
  145:  //     ...
  146:  //     CHUNK n
  147:  //
  148:  // BLOCK HEADER:
  149:  // The first 4 bytes of the block are reserved for a header.
  150:  //     byte 0  sequence number, incremented each block, used to identify most recently written block
  151:  //     byte 1  ASCII 'D'
  152:  //     byte 2  ASCII 'T'
  153:  //     byte 3  ASCII 'C'
  154:  // The header is checked at boot ensure the DTC data in the block is valid/initialized.
  155:  // The sequence byte is incremented by one for each block written, letting the firmware identify the most recently written data block
  156:  // The sequence byte is the first byte written, to ensure it is stored/valid before the rest of the signature is written
  157:  //
  158:  // CHUNK:
  159:  // Each individual chunk written consists of the following data
  160:  //       name           size          description
  161:  //     START_FLAG        1            indicates chunk is not empty
  162:  //     DTCs        NUM_IDS_CAN_DTCS   status of each DTC
  163:  //     CRC               1            CRC of DTC data
  164:  //     END_FLAG          1            indicates that complete chunk was successfully written
  165:  // START_FLAG and END_FLAG are used as interlocks.
  166:  // When writing a chunk, START_FLAG must be written first, and END_FLAG must be written last.
  167:  // These interlock flags allows the software to identify "empty" chunks, "partially written" chunks, and "fully written" chunks
  168:  
  169:  // sanity check
  170:  // need at least two storage blocks to double buffer
  171:  // if we have too many blocks, we can't tell where the sequence begins or ends
  172:  #if IDS_CAN_DTC_NUM_STORAGE_BLOCKS < 2
  173:  	#error IDS_CAN_DTC_NUM_STORAGE_BLOCKS is too small
  174:  #endif
  175:  #if IDS_CAN_DTC_NUM_STORAGE_BLOCKS > 250
  176:  	#error IDS_CAN_DTC_NUM_STORAGE_BLOCKS is too large
  177:  #endif
  178:  
  179:  #define ALIGN_4(size)       ((uint16)((((size) + 3) / 4) * 4))
  180:  
  181:  #define BLOCK_HEADER_SIZE   4
  182:  #define CHUNK_SIZE          ALIGN_4((uint16)NUM_IDS_CAN_DTCS + 3) /* MUST align on 4 byte boundary */
  183:  #define NUM_CHUNKS          ((uint16)((IDS_CAN_DTC_STORAGE_BLOCK_SIZE - BLOCK_HEADER_SIZE) / CHUNK_SIZE))
  184:  #define START_FLAG          0x55
  185:  #define END_FLAG            0xAA
  186:  
  187:  #define CHUNK_OFFSET_START_FLAG  0
  188:  #define CHUNK_OFFSET_DTC_DATA    1
  189:  #define CHUNK_OFFSET_CRC         ((uint16)NUM_IDS_CAN_DTCS + 1)
  190:  #define CHUNK_OFFSET_END_FLAG    ((uint16)NUM_IDS_CAN_DTCS + 2)
  191:  
  192:  static struct
  193:  {
  194:  	uint8 NeedsFlush;   // true when a flush should occur
  195:  	uint8 SequenceNum;  // sequential number used to identify newest block, should always be 1 greater than last block
  196:  	uint8 Block;        // current storage block being written
  197:  	uint16 Chunk;       // current chunk being written
  198:  	uint8 CRC;          // running CRC for chunk being flushed
  199:  } Flush;
  200:  
  201:  // macro that calculates the base offset of the current Flush.Chunk
  202:  #define CHUNK_OFFSET  ((CHUNK_SIZE * Flush.Chunk) + BLOCK_HEADER_SIZE)
  203:  
  204:  // reads data from storage, gives up after 255 failed attempts
  205:  static uint8 TryBlockRead(uint16 offset, uint16 count, void* buffer)
  206:  {

Function: TryBlockRead
Source  : C:\Working\BitBucket\pr0003866-onecontrol-motorized-4pt-hydraulic-leveler-re-ground\Sources\IDS-CAN_DTC_Manager.c
Options : -Cni -CPUHCS12 -DPPAGE_ADDR=0x15 -D__MAP_FLASH__ -Env"GENPATH=C:\Working\BitBucket\pr0003866-onecontrol-motorized-4pt-hydraulic-leveler-re-ground;C:\Working\BitBucket\pr0003866-onecontrol-motorized-4pt-hydraulic-leveler-re-ground\bin;C:\Working\BitBucket\pr0003866-onecontrol-motorized-4pt-hydraulic-leveler-re-ground\prm;C:\Working\BitBucket\pr0003866-onecontrol-motorized-4pt-hydraulic-leveler-re-ground\cmd;C:\Working\BitBucket\pr0003866-onecontrol-motorized-4pt-hydraulic-leveler-re-ground\Sources;C:\Program Files (x86)\Freescale\CWS12v5.1\lib\HC12c\lib;C:\Program Files (x86)\Freescale\CWS12v5.1\lib\HC12c\src;C:\Program Files (x86)\Freescale\CWS12v5.1\lib\HC12c\include" -Env"LIBPATH=C:\Program Files (x86)\Freescale\CWS12v5.1\lib\HC12c\include" -EnvOBJPATH=C:\Working\BitBucket\pr0003866-onecontrol-motorized-4pt-hydraulic-leveler-re-ground\bin -EnvTEXTPATH=C:\Working\BitBucket\pr0003866-onecontrol-motorized-4pt-hydraulic-leveler-re-ground\bin -Lasm=%n.lst -Mb -MapFlash -ObjN=C:\Working\BitBucket\pr0003866-onecontrol-motorized-4pt-hydraulic-leveler-re-ground\25778_OneControl_Motorized_Data\Standard\ObjectCode\IDS-CAN_DTC_Manager.c.o -TE1uE -WmsgSd1106 -WmsgSd4301

  0000 6cad         [2]     STD   3,-SP
  207:  	uint8 attempts = 0xFF;
  0002 c6ff         [1]     LDAB  #255
  0004 6b82         [2]     STAB  2,SP
  208:       do
  209:       {
  210:  		if (IDS_CAN_DTC_STORAGE_READ(Flush.Block, offset, count, buffer))
  0006 f60000       [3]     LDAB  Flush:2
  0009 37           [2]     PSHB  
  000a ec89         [3]     LDD   9,SP
  000c 3b           [2]     PSHD  
  000d ec89         [3]     LDD   9,SP
  000f 3b           [2]     PSHD  
  0010 ec85         [3]     LDD   5,SP
  0012 4a000000     [7]     CALL  Block_Read,PAGE(Block_Read)
  0016 1b85         [2]     LEAS  5,SP
  0018 044104       [3]     TBEQ  B,*+7 ;abs = 001f
  211:  			return TRUE;
  001b c601         [1]     LDAB  #1
  001d 2006         [3]     BRA   *+8 ;abs = 0025
  212:       } while (--attempts);
  001f 6382         [3]     DEC   2,SP
  0021 e682         [3]     LDAB  2,SP
  0023 26e1         [3/1]   BNE   *-29 ;abs = 0006
  213:       return FALSE;
  214:  }
  0025 1b83         [2]     LEAS  3,SP
  0027 0a           [7]     RTC   
  215:  
  216:  // read a byte from current Flush.Chunk in the current Flush.Block
  217:  static uint16 TryChunkRead(uint16 offset)
  218:  {

Function: TryChunkRead
Source  : C:\Working\BitBucket\pr0003866-onecontrol-motorized-4pt-hydraulic-leveler-re-ground\Sources\IDS-CAN_DTC_Manager.c
Options : -Cni -CPUHCS12 -DPPAGE_ADDR=0x15 -D__MAP_FLASH__ -Env"GENPATH=C:\Working\BitBucket\pr0003866-onecontrol-motorized-4pt-hydraulic-leveler-re-ground;C:\Working\BitBucket\pr0003866-onecontrol-motorized-4pt-hydraulic-leveler-re-ground\bin;C:\Working\BitBucket\pr0003866-onecontrol-motorized-4pt-hydraulic-leveler-re-ground\prm;C:\Working\BitBucket\pr0003866-onecontrol-motorized-4pt-hydraulic-leveler-re-ground\cmd;C:\Working\BitBucket\pr0003866-onecontrol-motorized-4pt-hydraulic-leveler-re-ground\Sources;C:\Program Files (x86)\Freescale\CWS12v5.1\lib\HC12c\lib;C:\Program Files (x86)\Freescale\CWS12v5.1\lib\HC12c\src;C:\Program Files (x86)\Freescale\CWS12v5.1\lib\HC12c\include" -Env"LIBPATH=C:\Program Files (x86)\Freescale\CWS12v5.1\lib\HC12c\include" -EnvOBJPATH=C:\Working\BitBucket\pr0003866-onecontrol-motorized-4pt-hydraulic-leveler-re-ground\bin -EnvTEXTPATH=C:\Working\BitBucket\pr0003866-onecontrol-motorized-4pt-hydraulic-leveler-re-ground\bin -Lasm=%n.lst -Mb -MapFlash -ObjN=C:\Working\BitBucket\pr0003866-onecontrol-motorized-4pt-hydraulic-leveler-re-ground\25778_OneControl_Motorized_Data\Standard\ObjectCode\IDS-CAN_DTC_Manager.c.o -TE1uE -WmsgSd1106 -WmsgSd4301

  0000 6cad         [2]     STD   3,-SP
  219:  	uint8 result;
  220:  	if (TryBlockRead(CHUNK_OFFSET + offset, 1, &result))
  0002 fc0000       [3]     LDD   Flush:3
  0005 cd0018       [2]     LDY   #24
  0008 13           [3]     EMUL  
  0009 c30004       [2]     ADDD  #4
  000c e380         [3]     ADDD  0,SP
  000e 3b           [2]     PSHD  
  000f c601         [1]     LDAB  #1
  0011 87           [1]     CLRA  
  0012 3b           [2]     PSHD  
  0013 1a86         [2]     LEAX  6,SP
  0015 b754         [1]     TFR   X,D
  0017 4a000000     [7]     CALL  TryBlockRead,PAGE(TryBlockRead)
  001b 1b84         [2]     LEAS  4,SP
  001d 044105       [3]     TBEQ  B,*+8 ;abs = 0025
  221:  		return result;
  0020 e682         [3]     LDAB  2,SP
  0022 87           [1]     CLRA  
  0023 2003         [3]     BRA   *+5 ;abs = 0028
  222:  	return 0xFFFF;
  0025 ccffff       [2]     LDD   #65535
  223:  }
  0028 1b83         [2]     LEAS  3,SP
  002a 0a           [7]     RTC   
  224:  
  225:  // reads and verifies the header for the current Flush.Block
  226:  static uint8 VerifyBlockHeader(void)
  227:  {

Function: VerifyBlockHeader
Source  : C:\Working\BitBucket\pr0003866-onecontrol-motorized-4pt-hydraulic-leveler-re-ground\Sources\IDS-CAN_DTC_Manager.c
Options : -Cni -CPUHCS12 -DPPAGE_ADDR=0x15 -D__MAP_FLASH__ -Env"GENPATH=C:\Working\BitBucket\pr0003866-onecontrol-motorized-4pt-hydraulic-leveler-re-ground;C:\Working\BitBucket\pr0003866-onecontrol-motorized-4pt-hydraulic-leveler-re-ground\bin;C:\Working\BitBucket\pr0003866-onecontrol-motorized-4pt-hydraulic-leveler-re-ground\prm;C:\Working\BitBucket\pr0003866-onecontrol-motorized-4pt-hydraulic-leveler-re-ground\cmd;C:\Working\BitBucket\pr0003866-onecontrol-motorized-4pt-hydraulic-leveler-re-ground\Sources;C:\Program Files (x86)\Freescale\CWS12v5.1\lib\HC12c\lib;C:\Program Files (x86)\Freescale\CWS12v5.1\lib\HC12c\src;C:\Program Files (x86)\Freescale\CWS12v5.1\lib\HC12c\include" -Env"LIBPATH=C:\Program Files (x86)\Freescale\CWS12v5.1\lib\HC12c\include" -EnvOBJPATH=C:\Working\BitBucket\pr0003866-onecontrol-motorized-4pt-hydraulic-leveler-re-ground\bin -EnvTEXTPATH=C:\Working\BitBucket\pr0003866-onecontrol-motorized-4pt-hydraulic-leveler-re-ground\bin -Lasm=%n.lst -Mb -MapFlash -ObjN=C:\Working\BitBucket\pr0003866-onecontrol-motorized-4pt-hydraulic-leveler-re-ground\25778_OneControl_Motorized_Data\Standard\ObjectCode\IDS-CAN_DTC_Manager.c.o -TE1uE -WmsgSd1106 -WmsgSd4301

  228:  	uint8 buf[4];
  229:  	if (!TryBlockRead(0, 4, buf)) return FALSE;
  0000 c7           [1]     CLRB  
  0001 87           [1]     CLRA  
  0002 6caa         [2]     STD   6,-SP
  0004 c604         [1]     LDAB  #4
  0006 3b           [2]     PSHD  
  0007 1a84         [2]     LEAX  4,SP
  0009 b754         [1]     TFR   X,D
  000b 4a000000     [7]     CALL  TryBlockRead,PAGE(TryBlockRead)
  000f 1b84         [2]     LEAS  4,SP
  0011 044112       [3]     TBEQ  B,*+21 ;abs = 0026
  230:  	if (buf[1] != 'D') return FALSE;
  0014 e681         [3]     LDAB  1,SP
  0016 c144         [1]     CMPB  #68
  0018 260c         [3/1]   BNE   *+14 ;abs = 0026
  231:  	if (buf[2] != 'T') return FALSE;
  001a e682         [3]     LDAB  2,SP
  001c c154         [1]     CMPB  #84
  001e 2606         [3/1]   BNE   *+8 ;abs = 0026
  232:  	if (buf[3] != 'C') return FALSE;
  0020 e683         [3]     LDAB  3,SP
  0022 c143         [1]     CMPB  #67
  0024 2703         [3/1]   BEQ   *+5 ;abs = 0029
  0026 c7           [1]     CLRB  
  0027 2007         [3]     BRA   *+9 ;abs = 0030
  233:  	Flush.SequenceNum = buf[0];
  0029 e680         [3]     LDAB  0,SP
  002b 7b0000       [3]     STAB  Flush:1
  234:  	return TRUE;
  002e c601         [1]     LDAB  #1
  235:  }
  0030 1b84         [2]     LEAS  4,SP
  0032 0a           [7]     RTC   
  236:  
  237:  // tries to load a chunk of data into DTC RAM
  238:  // checks interlock flags and CRC to ensure clean loading
  239:  // returns TRUE on success, FALSE on failure
  240:  static uint8 TryLoadDTCsFromChunk(void)
  241:  {

Function: TryLoadDTCsFromChunk
Source  : C:\Working\BitBucket\pr0003866-onecontrol-motorized-4pt-hydraulic-leveler-re-ground\Sources\IDS-CAN_DTC_Manager.c
Options : -Cni -CPUHCS12 -DPPAGE_ADDR=0x15 -D__MAP_FLASH__ -Env"GENPATH=C:\Working\BitBucket\pr0003866-onecontrol-motorized-4pt-hydraulic-leveler-re-ground;C:\Working\BitBucket\pr0003866-onecontrol-motorized-4pt-hydraulic-leveler-re-ground\bin;C:\Working\BitBucket\pr0003866-onecontrol-motorized-4pt-hydraulic-leveler-re-ground\prm;C:\Working\BitBucket\pr0003866-onecontrol-motorized-4pt-hydraulic-leveler-re-ground\cmd;C:\Working\BitBucket\pr0003866-onecontrol-motorized-4pt-hydraulic-leveler-re-ground\Sources;C:\Program Files (x86)\Freescale\CWS12v5.1\lib\HC12c\lib;C:\Program Files (x86)\Freescale\CWS12v5.1\lib\HC12c\src;C:\Program Files (x86)\Freescale\CWS12v5.1\lib\HC12c\include" -Env"LIBPATH=C:\Program Files (x86)\Freescale\CWS12v5.1\lib\HC12c\include" -EnvOBJPATH=C:\Working\BitBucket\pr0003866-onecontrol-motorized-4pt-hydraulic-leveler-re-ground\bin -EnvTEXTPATH=C:\Working\BitBucket\pr0003866-onecontrol-motorized-4pt-hydraulic-leveler-re-ground\bin -Lasm=%n.lst -Mb -MapFlash -ObjN=C:\Working\BitBucket\pr0003866-onecontrol-motorized-4pt-hydraulic-leveler-re-ground\25778_OneControl_Motorized_Data\Standard\ObjectCode\IDS-CAN_DTC_Manager.c.o -TE1uE -WmsgSd1106 -WmsgSd4301

  242:  	uint8 dtc;
  243:  
  244:  	// check interlock flags
  245:  	if (TryChunkRead(CHUNK_OFFSET_START_FLAG) != START_FLAG) return FALSE;
  0000 c7           [1]     CLRB  
  0001 87           [1]     CLRA  
  0002 4a000000     [7]     CALL  TryChunkRead,PAGE(TryChunkRead)
  0006 8c0055       [2]     CPD   #85
  0009 2642         [3/1]   BNE   *+68 ;abs = 004d
  246:  	if (TryChunkRead(CHUNK_OFFSET_END_FLAG) != END_FLAG) return FALSE;
  000b c614         [1]     LDAB  #20
  000d 87           [1]     CLRA  
  000e 4a000000     [7]     CALL  TryChunkRead,PAGE(TryChunkRead)
  0012 8c00aa       [2]     CPD   #170
  0015 2636         [3/1]   BNE   *+56 ;abs = 004d
  247:  
  248:  	// load the DTC data into RAM
  249:  	if (!TryBlockRead(CHUNK_OFFSET + CHUNK_OFFSET_DTC_DATA, (uint16)NUM_IDS_CAN_DTCS, DTC.Status)) return FALSE;
  0017 fc0000       [3]     LDD   Flush:3
  001a cd0018       [2]     LDY   #24
  001d 13           [3]     EMUL  
  001e c30005       [2]     ADDD  #5
  0021 3b           [2]     PSHD  
  0022 c612         [1]     LDAB  #18
  0024 87           [1]     CLRA  
  0025 3b           [2]     PSHD  
  0026 cc0000       [2]     LDD   #DTC
  0029 4a000000     [7]     CALL  TryBlockRead,PAGE(TryBlockRead)
  002d 1b84         [2]     LEAS  4,SP
  002f 04411b       [3]     TBEQ  B,*+30 ;abs = 004d
  250:  
  251:  	// read/verify the CRC
  252:  	if (CRC8_Calculate(DTC.Status, (uint16)NUM_IDS_CAN_DTCS) != TryChunkRead(CHUNK_OFFSET_CRC))
  0032 cc0000       [2]     LDD   #DTC
  0035 3b           [2]     PSHD  
  0036 c612         [1]     LDAB  #18
  0038 87           [1]     CLRA  
  0039 4a000000     [7]     CALL  CRC8_Calculate,PAGE(CRC8_Calculate)
  003d 87           [1]     CLRA  
  003e 6c80         [2]     STD   0,SP
  0040 c613         [1]     LDAB  #19
  0042 4a000000     [7]     CALL  TryChunkRead,PAGE(TryChunkRead)
  0046 3b           [2]     PSHD  
  0047 ee82         [3]     LDX   2,SP
  0049 aeb3         [3]     CPX   4,SP+
  004b 2702         [3/1]   BEQ   *+4 ;abs = 004f
  253:  		return FALSE;
  004d c7           [1]     CLRB  
  004e 0a           [7]     RTC   
  254:  
  255:  	// by definition, stored DTCs read at boot are not "active"
  256:  	// if the fault was active when flushed, we still need to read it into the inactive state
  257:  	for (dtc=0; dtc < (uint8)NUM_IDS_CAN_DTCS; dtc++)
  004f c7           [1]     CLRB  
  258:  		DTC.Status[dtc] &= 0x7F;
  0050 87           [1]     CLRA  
  0051 b745         [1]     TFR   D,X
  0053 0de2000080   [6]     BCLR  DTC,X,#128
  0058 52           [1]     INCB  
  0059 c112         [1]     CMPB  #18
  005b 25f3         [3/1]   BCS   *-11 ;abs = 0050
  259:  
  260:  	return TRUE;
  005d c601         [1]     LDAB  #1
  261:  }
  005f 0a           [7]     RTC   
  262:  
  263:  // locates the newest/valid chunk of data in Flash.Block, and then loads it into DTC RAM
  264:  // returns TRUE if a chunk was found and loaded sucessfully, FALSE otherwise
  265:  static uint8 TryLoadDTCsFromBlock(void)
  266:  {

Function: TryLoadDTCsFromBlock
Source  : C:\Working\BitBucket\pr0003866-onecontrol-motorized-4pt-hydraulic-leveler-re-ground\Sources\IDS-CAN_DTC_Manager.c
Options : -Cni -CPUHCS12 -DPPAGE_ADDR=0x15 -D__MAP_FLASH__ -Env"GENPATH=C:\Working\BitBucket\pr0003866-onecontrol-motorized-4pt-hydraulic-leveler-re-ground;C:\Working\BitBucket\pr0003866-onecontrol-motorized-4pt-hydraulic-leveler-re-ground\bin;C:\Working\BitBucket\pr0003866-onecontrol-motorized-4pt-hydraulic-leveler-re-ground\prm;C:\Working\BitBucket\pr0003866-onecontrol-motorized-4pt-hydraulic-leveler-re-ground\cmd;C:\Working\BitBucket\pr0003866-onecontrol-motorized-4pt-hydraulic-leveler-re-ground\Sources;C:\Program Files (x86)\Freescale\CWS12v5.1\lib\HC12c\lib;C:\Program Files (x86)\Freescale\CWS12v5.1\lib\HC12c\src;C:\Program Files (x86)\Freescale\CWS12v5.1\lib\HC12c\include" -Env"LIBPATH=C:\Program Files (x86)\Freescale\CWS12v5.1\lib\HC12c\include" -EnvOBJPATH=C:\Working\BitBucket\pr0003866-onecontrol-motorized-4pt-hydraulic-leveler-re-ground\bin -EnvTEXTPATH=C:\Working\BitBucket\pr0003866-onecontrol-motorized-4pt-hydraulic-leveler-re-ground\bin -Lasm=%n.lst -Mb -MapFlash -ObjN=C:\Working\BitBucket\pr0003866-onecontrol-motorized-4pt-hydraulic-leveler-re-ground\25778_OneControl_Motorized_Data\Standard\ObjectCode\IDS-CAN_DTC_Manager.c.o -TE1uE -WmsgSd1106 -WmsgSd4301

  0000 1b9c         [2]     LEAS  -4,SP
  267:  	uint16 first_free_chunk;
  268:  
  269:  	// starting at the end of the block, scan backwards and find the most recent data chunk
  270:  	Flush.Chunk = NUM_CHUNKS - 1; // start with last chunk
  0002 c604         [1]     LDAB  #4
  0004 87           [1]     CLRA  
  0005 7c0000       [3]     STD   Flush:3
  271:  	for (;;)
  272:  	{
  273:  		// check the interlock flag at the start of the chunk
  274:  		uint16 result = TryChunkRead(CHUNK_OFFSET_START_FLAG);
  0008 c7           [1]     CLRB  
  0009 87           [1]     CLRA  
  000a 4a000000     [7]     CALL  TryChunkRead,PAGE(TryChunkRead)
  000e 6c82         [2]     STD   2,SP
  275:  		if (result == START_FLAG) break; // this chunk is valid and contains data
  0010 8c0055       [2]     CPD   #85
  0013 2710         [3/1]   BEQ   *+18 ;abs = 0025
  276:  		if (result != IDS_CAN_DTC_STORAGE_ERASED_VALUE) return FALSE; // if the chunk is not valid, then this byte should be erased
  0015 8c00ff       [2]     CPD   #255
  0018 2618         [3/1]   BNE   *+26 ;abs = 0032
  277:  
  278:  		// chunk is empty, scan downwards till we find a non-empty chunk
  279:  		if (Flush.Chunk == 0) return FALSE; // no more chunks
  001a fe0000       [3]     LDX   Flush:3
  001d 2713         [3/1]   BEQ   *+21 ;abs = 0032
  280:  		Flush.Chunk--;
  001f 09           [1]     DEX   
  0020 7e0000       [3]     STX   Flush:3
  0023 20e3         [3]     BRA   *-27 ;abs = 0008
  281:  	}
  282:  
  283:  	// the first free chunk is the one beyond this chunk
  284:  	first_free_chunk = Flush.Chunk + 1;
  0025 fe0000       [3]     LDX   Flush:3
  0028 08           [1]     INX   
  0029 6e80         [2]     STX   0,SP
  285:  
  286:  	// try loading chunks until we load one sucessfully
  287:  	while (!TryLoadDTCsFromChunk())
  002b 200c         [3]     BRA   *+14 ;abs = 0039
  288:  	{
  289:  		// scan downwards to next chunk, eventually we should find a valid chunk that loads
  290:  		if (Flush.Chunk == 0) return FALSE; // no more chunks
  002d fe0000       [3]     LDX   Flush:3
  0030 2603         [3/1]   BNE   *+5 ;abs = 0035
  0032 c7           [1]     CLRB  
  0033 2012         [3]     BRA   *+20 ;abs = 0047
  291:  		Flush.Chunk--;
  0035 09           [1]     DEX   
  0036 7e0000       [3]     STX   Flush:3
  0039 4a000000     [7]     CALL  TryLoadDTCsFromChunk,PAGE(TryLoadDTCsFromChunk)
  003d 0451ed       [3]     TBEQ  B,*-16 ;abs = 002d
  292:  	}
  293:  
  294:  	// chunk loaded!
  295:  
  296:  	// we must return pointing to the first free chunk in the block
  297:  	// which is where the first flush operation will write to
  298:  	Flush.Chunk = first_free_chunk;
  0040 ec80         [3]     LDD   0,SP
  0042 7c0000       [3]     STD   Flush:3
  299:  
  300:  	return TRUE;
  0045 c601         [1]     LDAB  #1
  301:  }
  0047 1b84         [2]     LEAS  4,SP
  0049 0a           [7]     RTC   
  302:  
  303:  static uint8 LoadDTCsFromStorage(void)
  304:  {

Function: LoadDTCsFromStorage
Source  : C:\Working\BitBucket\pr0003866-onecontrol-motorized-4pt-hydraulic-leveler-re-ground\Sources\IDS-CAN_DTC_Manager.c
Options : -Cni -CPUHCS12 -DPPAGE_ADDR=0x15 -D__MAP_FLASH__ -Env"GENPATH=C:\Working\BitBucket\pr0003866-onecontrol-motorized-4pt-hydraulic-leveler-re-ground;C:\Working\BitBucket\pr0003866-onecontrol-motorized-4pt-hydraulic-leveler-re-ground\bin;C:\Working\BitBucket\pr0003866-onecontrol-motorized-4pt-hydraulic-leveler-re-ground\prm;C:\Working\BitBucket\pr0003866-onecontrol-motorized-4pt-hydraulic-leveler-re-ground\cmd;C:\Working\BitBucket\pr0003866-onecontrol-motorized-4pt-hydraulic-leveler-re-ground\Sources;C:\Program Files (x86)\Freescale\CWS12v5.1\lib\HC12c\lib;C:\Program Files (x86)\Freescale\CWS12v5.1\lib\HC12c\src;C:\Program Files (x86)\Freescale\CWS12v5.1\lib\HC12c\include" -Env"LIBPATH=C:\Program Files (x86)\Freescale\CWS12v5.1\lib\HC12c\include" -EnvOBJPATH=C:\Working\BitBucket\pr0003866-onecontrol-motorized-4pt-hydraulic-leveler-re-ground\bin -EnvTEXTPATH=C:\Working\BitBucket\pr0003866-onecontrol-motorized-4pt-hydraulic-leveler-re-ground\bin -Lasm=%n.lst -Mb -MapFlash -ObjN=C:\Working\BitBucket\pr0003866-onecontrol-motorized-4pt-hydraulic-leveler-re-ground\25778_OneControl_Motorized_Data\Standard\ObjectCode\IDS-CAN_DTC_Manager.c.o -TE1uE -WmsgSd1106 -WmsgSd4301

  0000 3b           [2]     PSHD  
  305:  	uint8 known_good_block;
  306:  	uint8 known_good_seq;
  307:  
  308:  	// initialize static variables
  309:  	Flush.NeedsFlush = FALSE;
  0001 790000       [3]     CLR   Flush
  310:  
  311:  	// find the first valid block in the system
  312:  	Flush.Block = 0;
  0004 790000       [3]     CLR   Flush:2
  313:  	while (!VerifyBlockHeader())
  0007 2004         [3]     BRA   *+6 ;abs = 000d
  314:  	{
  315:  		// move to the next block
  316:  		if (++Flush.Block >= IDS_CAN_DTC_NUM_STORAGE_BLOCKS)
  0009 0762         [4]     BSR   *+100 ;abs = 006d
  000b 245a         [3/1]   BCC   *+92 ;abs = 0067
  000d 4a000000     [7]     CALL  VerifyBlockHeader,PAGE(VerifyBlockHeader)
  0011 0451f5       [3]     TBEQ  B,*-8 ;abs = 0009
  317:  			return FALSE; // no initialized blocks found, can't continue
  318:  	}
  319:  
  320:  	// we found a valid block
  321:  
  322:  	// check subsequent blocks until we reach the end of the block sequence
  323:  	for (;;)
  324:  	{
  325:  		// remember this block
  326:  		known_good_block = Flush.Block;
  0014 f60000       [3]     LDAB  Flush:2
  0017 6b81         [2]     STAB  1,SP
  327:  		known_good_seq = Flush.SequenceNum;
  0019 f60000       [3]     LDAB  Flush:1
  001c 6b80         [2]     STAB  0,SP
  328:  
  329:  		// see if the next block is valid and in sequence
  330:  		Flush.Block++;
  001e 074d         [4]     BSR   *+79 ;abs = 006d
  331:  		if (Flush.Block >= IDS_CAN_DTC_NUM_STORAGE_BLOCKS)
  0020 240f         [3/1]   BCC   *+17 ;abs = 0031
  332:  			break; // no more blocks
  333:  		if (!VerifyBlockHeader())
  0022 4a000000     [7]     CALL  VerifyBlockHeader,PAGE(VerifyBlockHeader)
  0026 044108       [3]     TBEQ  B,*+11 ;abs = 0031
  334:  			break; // invalid block header, indicates end of sequence reached
  335:  		if ((uint8)(Flush.SequenceNum - known_good_seq) != 1)
  0029 f60000       [3]     LDAB  Flush:1
  002c e080         [3]     SUBB  0,SP
  002e 0411e3       [3]     DBEQ  B,*-26 ;abs = 0014
  336:  			break; // next block is out of sequence, therefore end of sequence was reached
  337:  	}
  338:  
  339:  	// we've found the last block in the sequence
  340:  
  341:  	// select last known good block in the sequence
  342:  	Flush.Block = known_good_block;
  0031 e681         [3]     LDAB  1,SP
  0033 7b0000       [3]     STAB  Flush:2
  343:  	Flush.SequenceNum = known_good_seq;
  0036 e680         [3]     LDAB  0,SP
  0038 7b0000       [3]     STAB  Flush:1
  344:  
  345:  	// try loading DTCs from the last known good block
  346:  	if (!TryLoadDTCsFromBlock())
  003b 4a000000     [7]     CALL  TryLoadDTCsFromBlock,PAGE(TryLoadDTCsFromBlock)
  003f 046127       [3]     TBNE  B,*+42 ;abs = 0069
  347:  	{
  348:  		// failed to locate a valid data chunk in this block
  349:  		// which is odd, as the block is valid/initialized
  350:  		// it is possible that we never got the chance to write a complete chunk to the block after we initialized it
  351:  		// in which case, we should have good DTC data in the previous block in the sequence
  352:  
  353:  		// move to previous block
  354:  		if (Flush.Block == 0)
  0042 f60000       [3]     LDAB  Flush:2
  0045 2607         [3/1]   BNE   *+9 ;abs = 004e
  355:  			Flush.Block = IDS_CAN_DTC_NUM_STORAGE_BLOCKS - 1;
  0047 c60b         [1]     LDAB  #11
  0049 7b0000       [3]     STAB  Flush:2
  004c 2003         [3]     BRA   *+5 ;abs = 0051
  356:  		else
  357:  			Flush.Block--;
  004e 730000       [4]     DEC   Flush:2
  358:  
  359:  		// is the previous block valid, and in sequence?
  360:  		if (!VerifyBlockHeader())
  0051 4a000000     [7]     CALL  VerifyBlockHeader,PAGE(VerifyBlockHeader)
  0055 04410f       [3]     TBEQ  B,*+18 ;abs = 0067
  361:  			return FALSE; // previous block is invalid, give up
  362:  		if ((uint8)(known_good_seq - Flush.SequenceNum) != 1)
  0058 e680         [3]     LDAB  0,SP
  005a f00000       [3]     SUBB  Flush:1
  005d 042107       [3]     DBNE  B,*+10 ;abs = 0067
  363:  			return FALSE; // previous block is valid but out of sequence, give up
  364:  
  365:  		// block appears valid
  366:  		// try and load DTCs from this block
  367:  		if (!TryLoadDTCsFromBlock())
  0060 4a000000     [7]     CALL  TryLoadDTCsFromBlock,PAGE(TryLoadDTCsFromBlock)
  0064 046102       [3]     TBNE  B,*+5 ;abs = 0069
  368:  			return FALSE; // no valid data chunks were found in this block either, give up
  0067 c7           [1]     CLRB  
  0068 8f           [2]     SKIP2 
  369:  	}
  370:  
  371:  	// if we get here, we've found valid chunk of data and sucessfully loaded it into DTC RAM
  372:  
  373:  	// at this point the following variables are set to:
  374:  	//    Flush.SequenceNum ==> SequenceNum of the block we loaded from
  375:  	//    Flush.Block       ==> the block we just loaded from
  376:  	//    Flush.Chunk       ==> points to first empty chunk found in the block we just loaded from
  377:  
  378:  	// we're done
  379:  	return TRUE;
  0069 c601         [1]     LDAB  #1
  380:  }
  006b 30           [3]     PULX  
  006c 0a           [7]     RTC   
  006d 720000       [4]     INC   Flush:2
  0070 f60000       [3]     LDAB  Flush:2
  0073 c10c         [1]     CMPB  #12
  0075 3d           [5]     RTS   
  381:  
  382:  static uint8 GetNextByteToFlush(uint16 index)
  383:  {

Function: GetNextByteToFlush
Source  : C:\Working\BitBucket\pr0003866-onecontrol-motorized-4pt-hydraulic-leveler-re-ground\Sources\IDS-CAN_DTC_Manager.c
Options : -Cni -CPUHCS12 -DPPAGE_ADDR=0x15 -D__MAP_FLASH__ -Env"GENPATH=C:\Working\BitBucket\pr0003866-onecontrol-motorized-4pt-hydraulic-leveler-re-ground;C:\Working\BitBucket\pr0003866-onecontrol-motorized-4pt-hydraulic-leveler-re-ground\bin;C:\Working\BitBucket\pr0003866-onecontrol-motorized-4pt-hydraulic-leveler-re-ground\prm;C:\Working\BitBucket\pr0003866-onecontrol-motorized-4pt-hydraulic-leveler-re-ground\cmd;C:\Working\BitBucket\pr0003866-onecontrol-motorized-4pt-hydraulic-leveler-re-ground\Sources;C:\Program Files (x86)\Freescale\CWS12v5.1\lib\HC12c\lib;C:\Program Files (x86)\Freescale\CWS12v5.1\lib\HC12c\src;C:\Program Files (x86)\Freescale\CWS12v5.1\lib\HC12c\include" -Env"LIBPATH=C:\Program Files (x86)\Freescale\CWS12v5.1\lib\HC12c\include" -EnvOBJPATH=C:\Working\BitBucket\pr0003866-onecontrol-motorized-4pt-hydraulic-leveler-re-ground\bin -EnvTEXTPATH=C:\Working\BitBucket\pr0003866-onecontrol-motorized-4pt-hydraulic-leveler-re-ground\bin -Lasm=%n.lst -Mb -MapFlash -ObjN=C:\Working\BitBucket\pr0003866-onecontrol-motorized-4pt-hydraulic-leveler-re-ground\25778_OneControl_Motorized_Data\Standard\ObjectCode\IDS-CAN_DTC_Manager.c.o -TE1uE -WmsgSd1106 -WmsgSd4301

  0000 36           [2]     PSHA  
  384:  	if (index == CHUNK_OFFSET_START_FLAG)
  0001 046404       [3]     TBNE  D,*+7 ;abs = 0008
  385:  		return START_FLAG;
  0004 c655         [1]     LDAB  #85
  0006 202e         [3]     BRA   *+48 ;abs = 0036
  386:  	else if (index < CHUNK_OFFSET_CRC)
  0008 8c0013       [2]     CPD   #19
  000b 2421         [3/1]   BCC   *+35 ;abs = 002e
  387:  	{
  388:  		// store off the DTC status
  389:  		// NOTE: the "active" is stored, although it is masked as inactive during reboot/init
  390:  		//       we store the active state just for additional enhancement in our analysis
  391:  		uint8 status = DTC.Status[index - CHUNK_OFFSET_DTC_DATA];
  000d b745         [1]     TFR   D,X
  000f e6e20000     [4]     LDAB  DTC:-1,X
  0013 6b80         [2]     STAB  0,SP
  392:  		if (index == CHUNK_OFFSET_DTC_DATA)
  0015 042505       [3]     DBNE  X,*+8 ;abs = 001d
  393:  			Flush.CRC = CRC8_Reset();
  0018 c655         [1]     LDAB  #85
  001a 7b0000       [3]     STAB  Flush:5
  394:  		Flush.CRC = CRC8_Update(Flush.CRC, status);
  001d f60000       [3]     LDAB  Flush:5
  0020 e880         [3]     EORB  0,SP
  0022 ce0000       [2]     LDX   #CRC8Table
  0025 a6e5         [3]     LDAA  B,X
  0027 7a0000       [3]     STAA  Flush:5
  395:  		return status;
  002a e680         [3]     LDAB  0,SP
  002c 2008         [3]     BRA   *+10 ;abs = 0036
  396:  	}
  397:  	else if (index == CHUNK_OFFSET_CRC)
  002e 2604         [3/1]   BNE   *+6 ;abs = 0034
  398:  		return Flush.CRC;
  0030 f60000       [3]     LDAB  Flush:5
  0033 8f           [2]     SKIP2 
  399:  	else
  400:  		return END_FLAG;
  0034 c6aa         [1]     LDAB  #170
  401:  }
  0036 32           [3]     PULA  
  0037 0a           [7]     RTC   
  402:  
  403:  #endif // IDS_CAN_DTC_NUM_STORAGE_BLOCKS
  404:  
  405:  void _IDS_CAN_DTC_Task10ms(void)
  406:  {

Function: _IDS_CAN_DTC_Task10ms
Source  : C:\Working\BitBucket\pr0003866-onecontrol-motorized-4pt-hydraulic-leveler-re-ground\Sources\IDS-CAN_DTC_Manager.c
Options : -Cni -CPUHCS12 -DPPAGE_ADDR=0x15 -D__MAP_FLASH__ -Env"GENPATH=C:\Working\BitBucket\pr0003866-onecontrol-motorized-4pt-hydraulic-leveler-re-ground;C:\Working\BitBucket\pr0003866-onecontrol-motorized-4pt-hydraulic-leveler-re-ground\bin;C:\Working\BitBucket\pr0003866-onecontrol-motorized-4pt-hydraulic-leveler-re-ground\prm;C:\Working\BitBucket\pr0003866-onecontrol-motorized-4pt-hydraulic-leveler-re-ground\cmd;C:\Working\BitBucket\pr0003866-onecontrol-motorized-4pt-hydraulic-leveler-re-ground\Sources;C:\Program Files (x86)\Freescale\CWS12v5.1\lib\HC12c\lib;C:\Program Files (x86)\Freescale\CWS12v5.1\lib\HC12c\src;C:\Program Files (x86)\Freescale\CWS12v5.1\lib\HC12c\include" -Env"LIBPATH=C:\Program Files (x86)\Freescale\CWS12v5.1\lib\HC12c\include" -EnvOBJPATH=C:\Working\BitBucket\pr0003866-onecontrol-motorized-4pt-hydraulic-leveler-re-ground\bin -EnvTEXTPATH=C:\Working\BitBucket\pr0003866-onecontrol-motorized-4pt-hydraulic-leveler-re-ground\bin -Lasm=%n.lst -Mb -MapFlash -ObjN=C:\Working\BitBucket\pr0003866-onecontrol-motorized-4pt-hydraulic-leveler-re-ground\25778_OneControl_Motorized_Data\Standard\ObjectCode\IDS-CAN_DTC_Manager.c.o -TE1uE -WmsgSd1106 -WmsgSd4301

  0000 1b98         [2]     LEAS  -8,SP
  407:  	#ifdef IDS_CAN_DTC_NUM_STORAGE_BLOCKS
  408:  
  409:  	typedef enum {
  410:  		// these states perform the block erase prior to flush
  411:  		// they increment into the SM_FLUSH state
  412:  		SM_ERASE_BLOCK,
  413:  #if IDS_CAN_DTC_NUM_STORAGE_BLOCKS >= 3
  414:  		SM_ERASE_NEXT_BLOCK,
  415:  #endif
  416:  		SM_WRITE_HEADER,
  417:  
  418:  		SM_FLUSH,
  419:  
  420:  		SM_IDLE,
  421:  	} STATE;
  422:  	static STATE State = SM_IDLE;
  423:  	static uint16 Index = 0;
  424:  	static uint8 Timeout = 0;
  425:  	uint8 last_block = Flush.Block;
  0002 f60000       [3]     LDAB  Flush:2
  0005 6b87         [2]     STAB  7,SP
  426:  	uint8 abort = FALSE;
  0007 6985         [2]     CLR   5,SP
  427:  	uint8 buf[4];
  428:  
  429:  	// handle flush timeout, range checks, sanity checks
  430:  	if (++Timeout == 0xFF)
  0009 720000       [4]     INC   Timeout
  000c f60000       [3]     LDAB  Timeout
  000f 04a112       [3]     IBNE  B,*+21 ;abs = 0024
  431:  	{
  432:  		// timeout occurred
  433:  		abort = TRUE;
  0012 c601         [1]     LDAB  #1
  0014 6b85         [2]     STAB  5,SP
  434:  		if (State == SM_FLUSH)
  0016 b60000       [3]     LDAA  State
  0019 8103         [1]     CMPA  #3
  001b 2607         [3/1]   BNE   *+9 ;abs = 0024
  435:  			Flush.Chunk++; // stuck while writing to a chunk, move to next chunk
  001d fe0000       [3]     LDX   Flush:3
  0020 08           [1]     INX   
  0021 7e0000       [3]     STX   Flush:3
  436:  	}
  437:  	if (Flush.Chunk >= NUM_CHUNKS) Flush.Block++; // chunk out of range, move to beginning of next block
  0024 fc0000       [3]     LDD   Flush:3
  0027 8c0005       [2]     CPD   #5
  002a 2503         [3/1]   BCS   *+5 ;abs = 002f
  002c 720000       [4]     INC   Flush:2
  438:  	if (Flush.Block >= IDS_CAN_DTC_NUM_STORAGE_BLOCKS) Flush.Block = 0; // block out of range, start over at first block
  002f f60000       [3]     LDAB  Flush:2
  0032 c10c         [1]     CMPB  #12
  0034 2503         [3/1]   BCS   *+5 ;abs = 0039
  0036 790000       [3]     CLR   Flush:2
  439:  
  440:  	// if block is changing
  441:  	if (Flush.Block != last_block)
  0039 f60000       [3]     LDAB  Flush:2
  003c e187         [3]     CMPB  7,SP
  003e 270d         [3/1]   BEQ   *+15 ;abs = 004d
  442:  	{
  443:  		// starting a new block
  444:  		Flush.SequenceNum++; // increment block sequence number
  0040 720000       [4]     INC   Flush:1
  445:  		Flush.Chunk = 0; // start at first chunk
  0043 c7           [1]     CLRB  
  0044 87           [1]     CLRA  
  0045 7c0000       [3]     STD   Flush:3
  446:  		abort = TRUE;
  0048 52           [1]     INCB  
  0049 6b85         [2]     STAB  5,SP
  004b 2004         [3]     BRA   *+6 ;abs = 0051
  447:  	}
  448:  
  449:  	// if we are aborting during an active flush
  450:  	if (abort && State < SM_IDLE)
  004d e685         [3]     LDAB  5,SP
  004f 2720         [3/1]   BEQ   *+34 ;abs = 0071
  0051 f60000       [3]     LDAB  State
  0054 c104         [1]     CMPB  #4
  0056 2419         [3/1]   BCC   *+27 ;abs = 0071
  451:  	{
  452:  		// restart the flush
  453:  		State = ((Flush.Chunk == 0) ? SM_ERASE_BLOCK : SM_FLUSH);
  0058 fc0000       [3]     LDD   Flush:3
  005b 2703         [3/1]   BEQ   *+5 ;abs = 0060
  005d c603         [1]     LDAB  #3
  005f 21           [1]     SKIP1 
  0060 c7           [1]     CLRB  
  0061 6b80         [2]     STAB  0,SP
  0063 a680         [3]     LDAA  0,SP
  0065 7a0000       [3]     STAA  State
  454:  		Index = 0;
  0068 790000       [3]     CLR   Index:1
  006b 790000       [3]     CLR   Index
  455:  		Timeout = 0;
  006e 790000       [3]     CLR   Timeout
  456:  	}
  457:  
  458:  	// run state machine
  459:  	switch (State)
  0071 f60000       [3]     LDAB  State
  0074 c103         [1]     CMPB  #3
  0076 182200db     [4/3]   LBHI  *+223 ;abs = 0155
  007a 87           [1]     CLRA  
  007b 160000       [4]     JSR   _CASE_CHECKED_BYTE
  007e 04           DC.B  4
  007f d5           DC.B  213
  0080 04           DC.B  4
  0081 10           DC.B  16
  0082 26           DC.B  38
  0083 52           DC.B  82
  460:  	{
  461:  	case SM_ERASE_BLOCK:
  462:  		// erase the block before we use it
  463:  		if (!IDS_CAN_DTC_STORAGE_ERASE_BLOCK(Flush.Block))
  0084 f60000       [3]     LDAB  Flush:2
  0087 4a000000     [7]     CALL  Block_Erase,PAGE(Block_Erase)
  008b 0441e8       [3]     TBEQ  B,*+235 ;abs = 0176
  464:  			return; // try again later
  465:  		State++; Timeout = 0;
  466:  		return;
  008e 2010         [3]     BRA   *+18 ;abs = 00a0
  467:  
  468:  #if IDS_CAN_DTC_NUM_STORAGE_BLOCKS >= 3
  469:  	case SM_ERASE_NEXT_BLOCK:
  470:  		// we should erase the block subsequent to the one we are about to use, so that it can't be mistaken as a valid block in sequence
  471:  		// with three blocks, we can safely erase it now, and still be guaranteed our previous DTC block is still valid
  472:  		if (!IDS_CAN_DTC_STORAGE_ERASE_BLOCK((Flush.Block + 1) % IDS_CAN_DTC_NUM_STORAGE_BLOCKS))
  0090 f60000       [3]     LDAB  Flush:2
  0093 52           [1]     INCB  
  0094 860c         [1]     LDAA  #12
  0096 160000       [4]     JSR   _BDIVMODU
  0099 4a000000     [7]     CALL  Block_Erase,PAGE(Block_Erase)
  009d 0441d6       [3]     TBEQ  B,*+217 ;abs = 0176
  473:  			return; // try again later
  474:  		State++; Timeout = 0;
  00a0 720000       [4]     INC   State
  00a3 060000       [3]     JMP   _IDS_CAN_DTC_Task10ms:0x0173
  475:  		return;
  476:  #endif
  477:  
  478:  	case SM_WRITE_HEADER:
  479:  		buf[0] = Flush.SequenceNum; buf[1] = 'D'; buf[2] = 'T'; buf[3] = 'C';
  00a6 f60000       [3]     LDAB  Flush:1
  00a9 6b81         [2]     STAB  1,SP
  00ab cc5444       [2]     LDD   #21572
  00ae 6b82         [2]     STAB  2,SP
  00b0 6a83         [2]     STAA  3,SP
  00b2 53           [1]     DECB  
  00b3 6b84         [2]     STAB  4,SP
  480:  		if (!IDS_CAN_DTC_STORAGE_WRITE32(Flush.Block, 0, buf))
  00b5 f60000       [3]     LDAB  Flush:2
  00b8 37           [2]     PSHB  
  00b9 c7           [1]     CLRB  
  00ba 87           [1]     CLRA  
  00bb 3b           [2]     PSHD  
  00bc c604         [1]     LDAB  #4
  00be 3b           [2]     PSHD  
  00bf 1a86         [2]     LEAX  6,SP
  00c1 b754         [1]     TFR   X,D
  00c3 4a000000     [7]     CALL  Block_Write,PAGE(Block_Write)
  00c7 1b85         [2]     LEAS  5,SP
  00c9 0441aa       [3]     TBEQ  B,*+173 ;abs = 0176
  481:  			return; // try again later
  482:  		State++; Timeout = 0;
  00cc 720000       [4]     INC   State
  00cf 790000       [3]     CLR   Timeout
  483:  		//lint -fallthrough
  484:  
  485:  	case SM_FLUSH:
  486:  		// loop until flush is complete
  487:  		if (Index == 0)
  00d2 fc0000       [3]     LDD   Index
  00d5 266c         [3/1]   BNE   *+110 ;abs = 0143
  488:  			Flush.NeedsFlush = FALSE; // this flag is cleared right before we start writing data to storage
  00d7 790000       [3]     CLR   Flush
  00da 2067         [3]     BRA   *+105 ;abs = 0143
  489:  		while (Index < CHUNK_SIZE)
  490:  		{
  491:  			uint8 crc = Flush.CRC; // remember current CRC
  00dc f60000       [3]     LDAB  Flush:5
  00df 6b86         [2]     STAB  6,SP
  492:  			buf[0] = GetNextByteToFlush(Index);
  00e1 fc0000       [3]     LDD   Index
  00e4 4a000000     [7]     CALL  GetNextByteToFlush,PAGE(GetNextByteToFlush)
  00e8 6b81         [2]     STAB  1,SP
  493:  			buf[1] = GetNextByteToFlush(Index+1);
  00ea fc0000       [3]     LDD   Index
  00ed c30001       [2]     ADDD  #1
  00f0 4a000000     [7]     CALL  GetNextByteToFlush,PAGE(GetNextByteToFlush)
  00f4 6b82         [2]     STAB  2,SP
  494:  			buf[2] = GetNextByteToFlush(Index+2);
  00f6 fc0000       [3]     LDD   Index
  00f9 c30002       [2]     ADDD  #2
  00fc 4a000000     [7]     CALL  GetNextByteToFlush,PAGE(GetNextByteToFlush)
  0100 6b83         [2]     STAB  3,SP
  495:  			buf[3] = GetNextByteToFlush(Index+3);
  0102 fc0000       [3]     LDD   Index
  0105 c30003       [2]     ADDD  #3
  0108 4a000000     [7]     CALL  GetNextByteToFlush,PAGE(GetNextByteToFlush)
  010c 6b84         [2]     STAB  4,SP
  496:  			if (!IDS_CAN_DTC_STORAGE_WRITE32(Flush.Block, CHUNK_OFFSET + Index, buf))
  010e f60000       [3]     LDAB  Flush:2
  0111 37           [2]     PSHB  
  0112 fc0000       [3]     LDD   Flush:3
  0115 cd0018       [2]     LDY   #24
  0118 13           [3]     EMUL  
  0119 c30004       [2]     ADDD  #4
  011c f30000       [3]     ADDD  Index
  011f 3b           [2]     PSHD  
  0120 c604         [1]     LDAB  #4
  0122 87           [1]     CLRA  
  0123 3b           [2]     PSHD  
  0124 1a86         [2]     LEAX  6,SP
  0126 b754         [1]     TFR   X,D
  0128 4a000000     [7]     CALL  Block_Write,PAGE(Block_Write)
  012c 1b85         [2]     LEAS  5,SP
  012e 046107       [3]     TBNE  B,*+10 ;abs = 0138
  497:  			{
  498:  				// write failed
  499:  				Flush.CRC = crc; // restore CRC to value prior to write attempt
  0131 e686         [3]     LDAB  6,SP
  0133 7b0000       [3]     STAB  Flush:5
  500:  				return; // try again later
  0136 203e         [3]     BRA   *+64 ;abs = 0176
  501:  			}
  502:  			Index += 4; // move to next 4 bytes
  0138 fe0000       [3]     LDX   Index
  013b 1a04         [2]     LEAX  4,X
  013d 7e0000       [3]     STX   Index
  503:  			Timeout = 0;
  0140 790000       [3]     CLR   Timeout
  0143 fc0000       [3]     LDD   Index
  0146 8c0018       [2]     CPD   #24
  0149 2591         [3/1]   BCS   *-109 ;abs = 00dc
  504:  		}
  505:  		// end the flush
  506:  		State++;
  014b 720000       [4]     INC   State
  507:  		Flush.Chunk++;
  014e fe0000       [3]     LDX   Flush:3
  0151 08           [1]     INX   
  0152 7e0000       [3]     STX   Flush:3
  508:  		//lint -fallthrough
  509:  
  510:  	case SM_IDLE:
  511:  	default:
  512:  		// auto-flush 2.5 seconds after a flush request occurs
  513:  		if (!Flush.NeedsFlush)
  0155 f60000       [3]     LDAB  Flush
  0158 2719         [3/1]   BEQ   *+27 ;abs = 0173
  514:  			Timeout = 0;
  515:  		else if (Timeout == 0xFF)
  015a f60000       [3]     LDAB  Timeout
  015d 04a116       [3]     IBNE  B,*+25 ;abs = 0176
  516:  		{
  517:  			Index = 0;
  0160 c7           [1]     CLRB  
  0161 87           [1]     CLRA  
  0162 7c0000       [3]     STD   Index
  518:  			State = ((Flush.Chunk == 0) ? SM_ERASE_BLOCK : SM_FLUSH);
  0165 fe0000       [3]     LDX   Flush:3
  0168 2702         [3/1]   BEQ   *+4 ;abs = 016c
  016a c603         [1]     LDAB  #3
  016c 6b80         [2]     STAB  0,SP
  016e a680         [3]     LDAA  0,SP
  0170 7a0000       [3]     STAA  State
  519:  			Timeout = 0;
  0173 790000       [3]     CLR   Timeout
  520:  		}
  521:  		break;
  522:  	}
  523:  
  524:  	#endif // IDS_CAN_DTC_NUM_STORAGE_BLOCKS
  525:  }
  0176 1b88         [2]     LEAS  8,SP
  0178 0a           [7]     RTC   
  526:  
  527:  ////////////////////////////////////////
  528:  ////////////////////////////////////////
  529:  ////////////////////////////////////////
  530:  ////////////////////////////////////////
  531:  
  532:  uint16 IDS_CAN_GetNumSupportedDTCs(void)
  533:  {

Function: IDS_CAN_GetNumSupportedDTCs
Source  : C:\Working\BitBucket\pr0003866-onecontrol-motorized-4pt-hydraulic-leveler-re-ground\Sources\IDS-CAN_DTC_Manager.c
Options : -Cni -CPUHCS12 -DPPAGE_ADDR=0x15 -D__MAP_FLASH__ -Env"GENPATH=C:\Working\BitBucket\pr0003866-onecontrol-motorized-4pt-hydraulic-leveler-re-ground;C:\Working\BitBucket\pr0003866-onecontrol-motorized-4pt-hydraulic-leveler-re-ground\bin;C:\Working\BitBucket\pr0003866-onecontrol-motorized-4pt-hydraulic-leveler-re-ground\prm;C:\Working\BitBucket\pr0003866-onecontrol-motorized-4pt-hydraulic-leveler-re-ground\cmd;C:\Working\BitBucket\pr0003866-onecontrol-motorized-4pt-hydraulic-leveler-re-ground\Sources;C:\Program Files (x86)\Freescale\CWS12v5.1\lib\HC12c\lib;C:\Program Files (x86)\Freescale\CWS12v5.1\lib\HC12c\src;C:\Program Files (x86)\Freescale\CWS12v5.1\lib\HC12c\include" -Env"LIBPATH=C:\Program Files (x86)\Freescale\CWS12v5.1\lib\HC12c\include" -EnvOBJPATH=C:\Working\BitBucket\pr0003866-onecontrol-motorized-4pt-hydraulic-leveler-re-ground\bin -EnvTEXTPATH=C:\Working\BitBucket\pr0003866-onecontrol-motorized-4pt-hydraulic-leveler-re-ground\bin -Lasm=%n.lst -Mb -MapFlash -ObjN=C:\Working\BitBucket\pr0003866-onecontrol-motorized-4pt-hydraulic-leveler-re-ground\25778_OneControl_Motorized_Data\Standard\ObjectCode\IDS-CAN_DTC_Manager.c.o -TE1uE -WmsgSd1106 -WmsgSd4301

  534:  	return (uint16)NUM_IDS_CAN_DTCS;
  0000 c612         [1]     LDAB  #18
  0002 87           [1]     CLRA  
  535:  }
  0003 0a           [7]     RTC   
  536:  
  537:  uint16 IDS_CAN_GetNumActiveDTCs(void)
  538:  {

Function: IDS_CAN_GetNumActiveDTCs
Source  : C:\Working\BitBucket\pr0003866-onecontrol-motorized-4pt-hydraulic-leveler-re-ground\Sources\IDS-CAN_DTC_Manager.c
Options : -Cni -CPUHCS12 -DPPAGE_ADDR=0x15 -D__MAP_FLASH__ -Env"GENPATH=C:\Working\BitBucket\pr0003866-onecontrol-motorized-4pt-hydraulic-leveler-re-ground;C:\Working\BitBucket\pr0003866-onecontrol-motorized-4pt-hydraulic-leveler-re-ground\bin;C:\Working\BitBucket\pr0003866-onecontrol-motorized-4pt-hydraulic-leveler-re-ground\prm;C:\Working\BitBucket\pr0003866-onecontrol-motorized-4pt-hydraulic-leveler-re-ground\cmd;C:\Working\BitBucket\pr0003866-onecontrol-motorized-4pt-hydraulic-leveler-re-ground\Sources;C:\Program Files (x86)\Freescale\CWS12v5.1\lib\HC12c\lib;C:\Program Files (x86)\Freescale\CWS12v5.1\lib\HC12c\src;C:\Program Files (x86)\Freescale\CWS12v5.1\lib\HC12c\include" -Env"LIBPATH=C:\Program Files (x86)\Freescale\CWS12v5.1\lib\HC12c\include" -EnvOBJPATH=C:\Working\BitBucket\pr0003866-onecontrol-motorized-4pt-hydraulic-leveler-re-ground\bin -EnvTEXTPATH=C:\Working\BitBucket\pr0003866-onecontrol-motorized-4pt-hydraulic-leveler-re-ground\bin -Lasm=%n.lst -Mb -MapFlash -ObjN=C:\Working\BitBucket\pr0003866-onecontrol-motorized-4pt-hydraulic-leveler-re-ground\25778_OneControl_Motorized_Data\Standard\ObjectCode\IDS-CAN_DTC_Manager.c.o -TE1uE -WmsgSd1106 -WmsgSd4301

  0000 1b9d         [2]     LEAS  -3,SP
  539:  	IDS_CAN_DTC dtc = NUM_IDS_CAN_DTCS;
  0002 c612         [1]     LDAB  #18
  0004 6b82         [2]     STAB  2,SP
  540:  	uint16 count = 0;
  0006 c7           [1]     CLRB  
  0007 87           [1]     CLRA  
  0008 6c80         [2]     STD   0,SP
  541:  	do
  542:  	{
  543:  		dtc--;
  000a 6382         [3]     DEC   2,SP
  544:  		if (IS_ACTIVE(dtc))
  000c e682         [3]     LDAB  2,SP
  000e ce0000       [2]     LDX   #DTC
  0011 0fe58005     [4]     BRCLR B,X,#128,*+9 ;abs = 001a
  545:  			count++;
  0015 ee80         [3]     LDX   0,SP
  0017 08           [1]     INX   
  0018 6e80         [2]     STX   0,SP
  546:  	} while (dtc);
  001a 0471ed       [3]     TBNE  B,*-16 ;abs = 000a
  547:  	return count;
  001d ec80         [3]     LDD   0,SP
  548:  }
  001f 1b83         [2]     LEAS  3,SP
  0021 0a           [7]     RTC   
  549:  
  550:  uint16 IDS_CAN_GetNumStoredDTCs(void)
  551:  {

Function: IDS_CAN_GetNumStoredDTCs
Source  : C:\Working\BitBucket\pr0003866-onecontrol-motorized-4pt-hydraulic-leveler-re-ground\Sources\IDS-CAN_DTC_Manager.c
Options : -Cni -CPUHCS12 -DPPAGE_ADDR=0x15 -D__MAP_FLASH__ -Env"GENPATH=C:\Working\BitBucket\pr0003866-onecontrol-motorized-4pt-hydraulic-leveler-re-ground;C:\Working\BitBucket\pr0003866-onecontrol-motorized-4pt-hydraulic-leveler-re-ground\bin;C:\Working\BitBucket\pr0003866-onecontrol-motorized-4pt-hydraulic-leveler-re-ground\prm;C:\Working\BitBucket\pr0003866-onecontrol-motorized-4pt-hydraulic-leveler-re-ground\cmd;C:\Working\BitBucket\pr0003866-onecontrol-motorized-4pt-hydraulic-leveler-re-ground\Sources;C:\Program Files (x86)\Freescale\CWS12v5.1\lib\HC12c\lib;C:\Program Files (x86)\Freescale\CWS12v5.1\lib\HC12c\src;C:\Program Files (x86)\Freescale\CWS12v5.1\lib\HC12c\include" -Env"LIBPATH=C:\Program Files (x86)\Freescale\CWS12v5.1\lib\HC12c\include" -EnvOBJPATH=C:\Working\BitBucket\pr0003866-onecontrol-motorized-4pt-hydraulic-leveler-re-ground\bin -EnvTEXTPATH=C:\Working\BitBucket\pr0003866-onecontrol-motorized-4pt-hydraulic-leveler-re-ground\bin -Lasm=%n.lst -Mb -MapFlash -ObjN=C:\Working\BitBucket\pr0003866-onecontrol-motorized-4pt-hydraulic-leveler-re-ground\25778_OneControl_Motorized_Data\Standard\ObjectCode\IDS-CAN_DTC_Manager.c.o -TE1uE -WmsgSd1106 -WmsgSd4301

  0000 1b9d         [2]     LEAS  -3,SP
  552:  	IDS_CAN_DTC dtc = NUM_IDS_CAN_DTCS;
  0002 c612         [1]     LDAB  #18
  0004 6b82         [2]     STAB  2,SP
  553:  	uint16 count = 0;
  0006 c7           [1]     CLRB  
  0007 87           [1]     CLRA  
  0008 6c80         [2]     STD   0,SP
  554:  	do
  555:  	{
  556:  		dtc--;
  000a 6382         [3]     DEC   2,SP
  557:  		if (IS_STORED(dtc))
  000c e682         [3]     LDAB  2,SP
  000e ce0000       [2]     LDX   #DTC
  0011 a6e5         [3]     LDAA  B,X
  0013 2705         [3/1]   BEQ   *+7 ;abs = 001a
  558:  			count++;
  0015 ee80         [3]     LDX   0,SP
  0017 08           [1]     INX   
  0018 6e80         [2]     STX   0,SP
  559:  	} while (dtc);
  001a 0471ed       [3]     TBNE  B,*-16 ;abs = 000a
  560:  	return count;
  001d ec80         [3]     LDD   0,SP
  561:  }
  001f 1b83         [2]     LEAS  3,SP
  0021 0a           [7]     RTC   
  562:  
  563:  uint8 IDS_CAN_AreAnyDTCsActive(void)
  564:  {

Function: IDS_CAN_AreAnyDTCsActive
Source  : C:\Working\BitBucket\pr0003866-onecontrol-motorized-4pt-hydraulic-leveler-re-ground\Sources\IDS-CAN_DTC_Manager.c
Options : -Cni -CPUHCS12 -DPPAGE_ADDR=0x15 -D__MAP_FLASH__ -Env"GENPATH=C:\Working\BitBucket\pr0003866-onecontrol-motorized-4pt-hydraulic-leveler-re-ground;C:\Working\BitBucket\pr0003866-onecontrol-motorized-4pt-hydraulic-leveler-re-ground\bin;C:\Working\BitBucket\pr0003866-onecontrol-motorized-4pt-hydraulic-leveler-re-ground\prm;C:\Working\BitBucket\pr0003866-onecontrol-motorized-4pt-hydraulic-leveler-re-ground\cmd;C:\Working\BitBucket\pr0003866-onecontrol-motorized-4pt-hydraulic-leveler-re-ground\Sources;C:\Program Files (x86)\Freescale\CWS12v5.1\lib\HC12c\lib;C:\Program Files (x86)\Freescale\CWS12v5.1\lib\HC12c\src;C:\Program Files (x86)\Freescale\CWS12v5.1\lib\HC12c\include" -Env"LIBPATH=C:\Program Files (x86)\Freescale\CWS12v5.1\lib\HC12c\include" -EnvOBJPATH=C:\Working\BitBucket\pr0003866-onecontrol-motorized-4pt-hydraulic-leveler-re-ground\bin -EnvTEXTPATH=C:\Working\BitBucket\pr0003866-onecontrol-motorized-4pt-hydraulic-leveler-re-ground\bin -Lasm=%n.lst -Mb -MapFlash -ObjN=C:\Working\BitBucket\pr0003866-onecontrol-motorized-4pt-hydraulic-leveler-re-ground\25778_OneControl_Motorized_Data\Standard\ObjectCode\IDS-CAN_DTC_Manager.c.o -TE1uE -WmsgSd1106 -WmsgSd4301

  565:  	IDS_CAN_DTC dtc = NUM_IDS_CAN_DTCS;
  0000 c612         [1]     LDAB  #18
  0002 37           [2]     PSHB  
  566:  	do
  567:  	{
  568:  		dtc--;
  0003 6380         [3]     DEC   0,SP
  569:  		if (IS_ACTIVE(dtc))
  0005 e680         [3]     LDAB  0,SP
  0007 ce0000       [2]     LDX   #DTC
  000a 0fe58004     [4]     BRCLR B,X,#128,*+8 ;abs = 0012
  570:  			return TRUE;
  000e c601         [1]     LDAB  #1
  0010 2003         [3]     BRA   *+5 ;abs = 0015
  571:  	} while (dtc);
  0012 0471ee       [3]     TBNE  B,*-15 ;abs = 0003
  572:  	return FALSE;
  573:  }
  0015 32           [3]     PULA  
  0016 0a           [7]     RTC   
  574:  
  575:  uint8 IDS_CAN_AreAnyDTCsStored(void)
  576:  {

Function: IDS_CAN_AreAnyDTCsStored
Source  : C:\Working\BitBucket\pr0003866-onecontrol-motorized-4pt-hydraulic-leveler-re-ground\Sources\IDS-CAN_DTC_Manager.c
Options : -Cni -CPUHCS12 -DPPAGE_ADDR=0x15 -D__MAP_FLASH__ -Env"GENPATH=C:\Working\BitBucket\pr0003866-onecontrol-motorized-4pt-hydraulic-leveler-re-ground;C:\Working\BitBucket\pr0003866-onecontrol-motorized-4pt-hydraulic-leveler-re-ground\bin;C:\Working\BitBucket\pr0003866-onecontrol-motorized-4pt-hydraulic-leveler-re-ground\prm;C:\Working\BitBucket\pr0003866-onecontrol-motorized-4pt-hydraulic-leveler-re-ground\cmd;C:\Working\BitBucket\pr0003866-onecontrol-motorized-4pt-hydraulic-leveler-re-ground\Sources;C:\Program Files (x86)\Freescale\CWS12v5.1\lib\HC12c\lib;C:\Program Files (x86)\Freescale\CWS12v5.1\lib\HC12c\src;C:\Program Files (x86)\Freescale\CWS12v5.1\lib\HC12c\include" -Env"LIBPATH=C:\Program Files (x86)\Freescale\CWS12v5.1\lib\HC12c\include" -EnvOBJPATH=C:\Working\BitBucket\pr0003866-onecontrol-motorized-4pt-hydraulic-leveler-re-ground\bin -EnvTEXTPATH=C:\Working\BitBucket\pr0003866-onecontrol-motorized-4pt-hydraulic-leveler-re-ground\bin -Lasm=%n.lst -Mb -MapFlash -ObjN=C:\Working\BitBucket\pr0003866-onecontrol-motorized-4pt-hydraulic-leveler-re-ground\25778_OneControl_Motorized_Data\Standard\ObjectCode\IDS-CAN_DTC_Manager.c.o -TE1uE -WmsgSd1106 -WmsgSd4301

  577:  	IDS_CAN_DTC dtc = NUM_IDS_CAN_DTCS;
  0000 c612         [1]     LDAB  #18
  0002 37           [2]     PSHB  
  578:  	do
  579:  	{
  580:  		dtc--;
  0003 6380         [3]     DEC   0,SP
  581:  		if (IS_STORED(dtc))
  0005 e680         [3]     LDAB  0,SP
  0007 ce0000       [2]     LDX   #DTC
  000a a6e5         [3]     LDAA  B,X
  000c 2704         [3/1]   BEQ   *+6 ;abs = 0012
  582:  			return TRUE;
  000e c601         [1]     LDAB  #1
  0010 2003         [3]     BRA   *+5 ;abs = 0015
  583:  	} while (dtc);
  0012 0471ee       [3]     TBNE  B,*-15 ;abs = 0003
  584:  	return FALSE;
  585:  }
  0015 32           [3]     PULA  
  0016 0a           [7]     RTC   
  586:  
  587:  uint8 IDS_CAN_IsDTCActive(IDS_CAN_DTC dtc)
  588:  {

Function: IDS_CAN_IsDTCActive
Source  : C:\Working\BitBucket\pr0003866-onecontrol-motorized-4pt-hydraulic-leveler-re-ground\Sources\IDS-CAN_DTC_Manager.c
Options : -Cni -CPUHCS12 -DPPAGE_ADDR=0x15 -D__MAP_FLASH__ -Env"GENPATH=C:\Working\BitBucket\pr0003866-onecontrol-motorized-4pt-hydraulic-leveler-re-ground;C:\Working\BitBucket\pr0003866-onecontrol-motorized-4pt-hydraulic-leveler-re-ground\bin;C:\Working\BitBucket\pr0003866-onecontrol-motorized-4pt-hydraulic-leveler-re-ground\prm;C:\Working\BitBucket\pr0003866-onecontrol-motorized-4pt-hydraulic-leveler-re-ground\cmd;C:\Working\BitBucket\pr0003866-onecontrol-motorized-4pt-hydraulic-leveler-re-ground\Sources;C:\Program Files (x86)\Freescale\CWS12v5.1\lib\HC12c\lib;C:\Program Files (x86)\Freescale\CWS12v5.1\lib\HC12c\src;C:\Program Files (x86)\Freescale\CWS12v5.1\lib\HC12c\include" -Env"LIBPATH=C:\Program Files (x86)\Freescale\CWS12v5.1\lib\HC12c\include" -EnvOBJPATH=C:\Working\BitBucket\pr0003866-onecontrol-motorized-4pt-hydraulic-leveler-re-ground\bin -EnvTEXTPATH=C:\Working\BitBucket\pr0003866-onecontrol-motorized-4pt-hydraulic-leveler-re-ground\bin -Lasm=%n.lst -Mb -MapFlash -ObjN=C:\Working\BitBucket\pr0003866-onecontrol-motorized-4pt-hydraulic-leveler-re-ground\25778_OneControl_Motorized_Data\Standard\ObjectCode\IDS-CAN_DTC_Manager.c.o -TE1uE -WmsgSd1106 -WmsgSd4301

  0000 37           [2]     PSHB  
  589:  	ASSERT(dtc < NUM_IDS_CAN_DTCS);
  0001 c112         [1]     CMPB  #18
  0003 250d         [3/1]   BCS   *+15 ;abs = 0012
  0005 cc0000       [2]     LDD   #"C:\Working\BitBucket\pr0003866-onecontrol-motorized-4pt-hydraulic-leveler-re-ground\Sources\IDS-CA
  0008 3b           [2]     PSHD  
  0009 cc024d       [2]     LDD   #589
  000c 4a000000     [7]     CALL  _IDSCore_AssertFailed,PAGE(_IDSCore_AssertFailed)
  0010 1b82         [2]     LEAS  2,SP
  590:  	if (dtc < NUM_IDS_CAN_DTCS)
  0012 e680         [3]     LDAB  0,SP
  0014 c112         [1]     CMPB  #18
  0016 2408         [3/1]   BCC   *+10 ;abs = 0020
  591:  		return IS_ACTIVE(dtc);
  0018 ce0000       [2]     LDX   #DTC
  001b e6e5         [3]     LDAB  B,X
  001d c480         [1]     ANDB  #128
  001f 21           [1]     SKIP1 
  592:  	return FALSE;
  0020 c7           [1]     CLRB  
  593:  }
  0021 32           [3]     PULA  
  0022 0a           [7]     RTC   
  594:  
  595:  uint8 IDS_CAN_IsDTCStored(IDS_CAN_DTC dtc)
  596:  {

Function: IDS_CAN_IsDTCStored
Source  : C:\Working\BitBucket\pr0003866-onecontrol-motorized-4pt-hydraulic-leveler-re-ground\Sources\IDS-CAN_DTC_Manager.c
Options : -Cni -CPUHCS12 -DPPAGE_ADDR=0x15 -D__MAP_FLASH__ -Env"GENPATH=C:\Working\BitBucket\pr0003866-onecontrol-motorized-4pt-hydraulic-leveler-re-ground;C:\Working\BitBucket\pr0003866-onecontrol-motorized-4pt-hydraulic-leveler-re-ground\bin;C:\Working\BitBucket\pr0003866-onecontrol-motorized-4pt-hydraulic-leveler-re-ground\prm;C:\Working\BitBucket\pr0003866-onecontrol-motorized-4pt-hydraulic-leveler-re-ground\cmd;C:\Working\BitBucket\pr0003866-onecontrol-motorized-4pt-hydraulic-leveler-re-ground\Sources;C:\Program Files (x86)\Freescale\CWS12v5.1\lib\HC12c\lib;C:\Program Files (x86)\Freescale\CWS12v5.1\lib\HC12c\src;C:\Program Files (x86)\Freescale\CWS12v5.1\lib\HC12c\include" -Env"LIBPATH=C:\Program Files (x86)\Freescale\CWS12v5.1\lib\HC12c\include" -EnvOBJPATH=C:\Working\BitBucket\pr0003866-onecontrol-motorized-4pt-hydraulic-leveler-re-ground\bin -EnvTEXTPATH=C:\Working\BitBucket\pr0003866-onecontrol-motorized-4pt-hydraulic-leveler-re-ground\bin -Lasm=%n.lst -Mb -MapFlash -ObjN=C:\Working\BitBucket\pr0003866-onecontrol-motorized-4pt-hydraulic-leveler-re-ground\25778_OneControl_Motorized_Data\Standard\ObjectCode\IDS-CAN_DTC_Manager.c.o -TE1uE -WmsgSd1106 -WmsgSd4301

  0000 37           [2]     PSHB  
  597:  	ASSERT(dtc < NUM_IDS_CAN_DTCS);
  0001 c112         [1]     CMPB  #18
  0003 250d         [3/1]   BCS   *+15 ;abs = 0012
  0005 cc0000       [2]     LDD   #"C:\Working\BitBucket\pr0003866-onecontrol-motorized-4pt-hydraulic-leveler-re-ground\Sources\IDS-CA
  0008 3b           [2]     PSHD  
  0009 cc0255       [2]     LDD   #597
  000c 4a000000     [7]     CALL  _IDSCore_AssertFailed,PAGE(_IDSCore_AssertFailed)
  0010 1b82         [2]     LEAS  2,SP
  598:  	if (dtc < NUM_IDS_CAN_DTCS)
  0012 e680         [3]     LDAB  0,SP
  0014 c112         [1]     CMPB  #18
  0016 2406         [3/1]   BCC   *+8 ;abs = 001e
  599:  		return IS_STORED(dtc);
  0018 ce0000       [2]     LDX   #DTC
  001b e6e5         [3]     LDAB  B,X
  001d 21           [1]     SKIP1 
  600:  	return FALSE;
  001e c7           [1]     CLRB  
  601:  }
  001f 32           [3]     PULA  
  0020 0a           [7]     RTC   
  602:  
  603:  IDS_CAN_DTC_INFO IDS_CAN_GetDTCInfo(IDS_CAN_DTC dtc)
  604:  {

Function: IDS_CAN_GetDTCInfo
Source  : C:\Working\BitBucket\pr0003866-onecontrol-motorized-4pt-hydraulic-leveler-re-ground\Sources\IDS-CAN_DTC_Manager.c
Options : -Cni -CPUHCS12 -DPPAGE_ADDR=0x15 -D__MAP_FLASH__ -Env"GENPATH=C:\Working\BitBucket\pr0003866-onecontrol-motorized-4pt-hydraulic-leveler-re-ground;C:\Working\BitBucket\pr0003866-onecontrol-motorized-4pt-hydraulic-leveler-re-ground\bin;C:\Working\BitBucket\pr0003866-onecontrol-motorized-4pt-hydraulic-leveler-re-ground\prm;C:\Working\BitBucket\pr0003866-onecontrol-motorized-4pt-hydraulic-leveler-re-ground\cmd;C:\Working\BitBucket\pr0003866-onecontrol-motorized-4pt-hydraulic-leveler-re-ground\Sources;C:\Program Files (x86)\Freescale\CWS12v5.1\lib\HC12c\lib;C:\Program Files (x86)\Freescale\CWS12v5.1\lib\HC12c\src;C:\Program Files (x86)\Freescale\CWS12v5.1\lib\HC12c\include" -Env"LIBPATH=C:\Program Files (x86)\Freescale\CWS12v5.1\lib\HC12c\include" -EnvOBJPATH=C:\Working\BitBucket\pr0003866-onecontrol-motorized-4pt-hydraulic-leveler-re-ground\bin -EnvTEXTPATH=C:\Working\BitBucket\pr0003866-onecontrol-motorized-4pt-hydraulic-leveler-re-ground\bin -Lasm=%n.lst -Mb -MapFlash -ObjN=C:\Working\BitBucket\pr0003866-onecontrol-motorized-4pt-hydraulic-leveler-re-ground\25778_OneControl_Motorized_Data\Standard\ObjectCode\IDS-CAN_DTC_Manager.c.o -TE1uE -WmsgSd1106 -WmsgSd4301

  0000 6bac         [2]     STAB  4,-SP
  605:  	static const IDS_CAN_DTC_INFO Empty = {0,0};
  606:  
  607:  	ASSERT(dtc < NUM_IDS_CAN_DTCS);
  0002 c112         [1]     CMPB  #18
  0004 250d         [3/1]   BCS   *+15 ;abs = 0013
  0006 cc0000       [2]     LDD   #"C:\Working\BitBucket\pr0003866-onecontrol-motorized-4pt-hydraulic-leveler-re-ground\Sources\IDS-CA
  0009 3b           [2]     PSHD  
  000a cc025f       [2]     LDD   #607
  000d 4a000000     [7]     CALL  _IDSCore_AssertFailed,PAGE(_IDSCore_AssertFailed)
  0011 1b82         [2]     LEAS  2,SP
  608:  	if (dtc < NUM_IDS_CAN_DTCS)
  0013 e680         [3]     LDAB  0,SP
  0015 c112         [1]     CMPB  #18
  0017 241c         [3/1]   BCC   *+30 ;abs = 0035
  609:  	{
  610:  		// create ROM table of DTC IDs
  611:  		static const uint16 ID[NUM_IDS_CAN_DTCS] = {
  612:  			#undef DECLARE_DTC
  613:  			#define DECLARE_DTC(dtc, debounce) dtc
  614:  			#undef DEFINE_DTC
  615:  			#define DEFINE_DTC(id, name) (id),
  616:  			DECLARE_SUPPORTED_IDS_CAN_DTCS
  617:  		};
  618:  
  619:  		IDS_CAN_DTC_INFO info;
  620:  		info.ID = ID[dtc];
  0019 87           [1]     CLRA  
  001a b746         [1]     TFR   D,Y
  001c 59           [1]     LSLD  
  001d b745         [1]     TFR   D,X
  001f ece20000     [4]     LDD   ID,X
  0023 6c81         [2]     STD   1,SP
  621:  		info.Status = DTC.Status[dtc];
  0025 e6ea0000     [4]     LDAB  DTC,Y
  0029 6b83         [2]     STAB  3,SP
  622:  		return info;
  002b ee87         [3]     LDX   7,SP
  002d e681         [3]     LDAB  1,SP
  002f 6b00         [2]     STAB  0,X
  0031 ec82         [3]     LDD   2,SP
  0033 200a         [3]     BRA   *+12 ;abs = 003f
  623:  	}
  624:  
  625:  	return Empty;
  0035 ee87         [3]     LDX   7,SP
  0037 f60000       [3]     LDAB  Empty
  003a 6b00         [2]     STAB  0,X
  003c fc0000       [3]     LDD   Empty:1
  003f 6c01         [2]     STD   1,X
  626:  }
  0041 1b84         [2]     LEAS  4,SP
  0043 0a           [7]     RTC   
  627:  
  628:  ////////////////////////////////////////
  629:  ////////////////////////////////////////
  630:  ////////////////////////////////////////
  631:  ////////////////////////////////////////
  632:  
  633:  #ifdef IDS_CAN_DTC_NUM_STORAGE_BLOCKS
  634:  static void SetDTCStatus(IDS_CAN_DTC dtc, uint8 status)
  635:  {

Function: SetDTCStatus
Source  : C:\Working\BitBucket\pr0003866-onecontrol-motorized-4pt-hydraulic-leveler-re-ground\Sources\IDS-CAN_DTC_Manager.c
Options : -Cni -CPUHCS12 -DPPAGE_ADDR=0x15 -D__MAP_FLASH__ -Env"GENPATH=C:\Working\BitBucket\pr0003866-onecontrol-motorized-4pt-hydraulic-leveler-re-ground;C:\Working\BitBucket\pr0003866-onecontrol-motorized-4pt-hydraulic-leveler-re-ground\bin;C:\Working\BitBucket\pr0003866-onecontrol-motorized-4pt-hydraulic-leveler-re-ground\prm;C:\Working\BitBucket\pr0003866-onecontrol-motorized-4pt-hydraulic-leveler-re-ground\cmd;C:\Working\BitBucket\pr0003866-onecontrol-motorized-4pt-hydraulic-leveler-re-ground\Sources;C:\Program Files (x86)\Freescale\CWS12v5.1\lib\HC12c\lib;C:\Program Files (x86)\Freescale\CWS12v5.1\lib\HC12c\src;C:\Program Files (x86)\Freescale\CWS12v5.1\lib\HC12c\include" -Env"LIBPATH=C:\Program Files (x86)\Freescale\CWS12v5.1\lib\HC12c\include" -EnvOBJPATH=C:\Working\BitBucket\pr0003866-onecontrol-motorized-4pt-hydraulic-leveler-re-ground\bin -EnvTEXTPATH=C:\Working\BitBucket\pr0003866-onecontrol-motorized-4pt-hydraulic-leveler-re-ground\bin -Lasm=%n.lst -Mb -MapFlash -ObjN=C:\Working\BitBucket\pr0003866-onecontrol-motorized-4pt-hydraulic-leveler-re-ground\25778_OneControl_Motorized_Data\Standard\ObjectCode\IDS-CAN_DTC_Manager.c.o -TE1uE -WmsgSd1106 -WmsgSd4301

  0000 37           [2]     PSHB  
  636:  	ASSERT(dtc < NUM_IDS_CAN_DTCS);
  0001 e684         [3]     LDAB  4,SP
  0003 c112         [1]     CMPB  #18
  0005 250d         [3/1]   BCS   *+15 ;abs = 0014
  0007 cc0000       [2]     LDD   #"C:\Working\BitBucket\pr0003866-onecontrol-motorized-4pt-hydraulic-leveler-re-ground\Sources\IDS-CA
  000a 3b           [2]     PSHD  
  000b cc027c       [2]     LDD   #636
  000e 4a000000     [7]     CALL  _IDSCore_AssertFailed,PAGE(_IDSCore_AssertFailed)
  0012 1b82         [2]     LEAS  2,SP
  637:  	if (dtc < NUM_IDS_CAN_DTCS)
  0014 e684         [3]     LDAB  4,SP
  0016 c112         [1]     CMPB  #18
  0018 2413         [3/1]   BCC   *+21 ;abs = 002d
  638:  	{
  639:  		// perform a flush if the stored value of the DTC is changing
  640:  		// NOTE: when we store, we only store the ignition cycles counter
  641:  		//       we do NOT store the active state
  642:  		//       therefore, we can safely ignore that bit
  643:  		Flush.NeedsFlush |= ((DTC.Status[dtc] ^ status) & 0x7F);
  001a a680         [3]     LDAA  0,SP
  001c ce0000       [2]     LDX   #DTC
  001f a8e5         [3]     EORA  B,X
  0021 847f         [1]     ANDA  #127
  0023 ba0000       [3]     ORAA  Flush
  0026 7a0000       [3]     STAA  Flush
  644:  		DTC.Status[dtc] = status;
  0029 a680         [3]     LDAA  0,SP
  002b 6ae5         [2]     STAA  B,X
  645:  	}
  646:  }
  002d 32           [3]     PULA  
  002e 0a           [7]     RTC   
  647:  #else // IDS_CAN_DTC_NUM_STORAGE_BLOCKS
  648:  #define SetDTCStatus(dtc, status) DTC.Status[dtc] = status
  649:  #endif // IDS_CAN_DTC_NUM_STORAGE_BLOCKS
  650:  
  651:  void IDS_CAN_SetDTC(IDS_CAN_DTC dtc)
  652:  {

Function: IDS_CAN_SetDTC
Source  : C:\Working\BitBucket\pr0003866-onecontrol-motorized-4pt-hydraulic-leveler-re-ground\Sources\IDS-CAN_DTC_Manager.c
Options : -Cni -CPUHCS12 -DPPAGE_ADDR=0x15 -D__MAP_FLASH__ -Env"GENPATH=C:\Working\BitBucket\pr0003866-onecontrol-motorized-4pt-hydraulic-leveler-re-ground;C:\Working\BitBucket\pr0003866-onecontrol-motorized-4pt-hydraulic-leveler-re-ground\bin;C:\Working\BitBucket\pr0003866-onecontrol-motorized-4pt-hydraulic-leveler-re-ground\prm;C:\Working\BitBucket\pr0003866-onecontrol-motorized-4pt-hydraulic-leveler-re-ground\cmd;C:\Working\BitBucket\pr0003866-onecontrol-motorized-4pt-hydraulic-leveler-re-ground\Sources;C:\Program Files (x86)\Freescale\CWS12v5.1\lib\HC12c\lib;C:\Program Files (x86)\Freescale\CWS12v5.1\lib\HC12c\src;C:\Program Files (x86)\Freescale\CWS12v5.1\lib\HC12c\include" -Env"LIBPATH=C:\Program Files (x86)\Freescale\CWS12v5.1\lib\HC12c\include" -EnvOBJPATH=C:\Working\BitBucket\pr0003866-onecontrol-motorized-4pt-hydraulic-leveler-re-ground\bin -EnvTEXTPATH=C:\Working\BitBucket\pr0003866-onecontrol-motorized-4pt-hydraulic-leveler-re-ground\bin -Lasm=%n.lst -Mb -MapFlash -ObjN=C:\Working\BitBucket\pr0003866-onecontrol-motorized-4pt-hydraulic-leveler-re-ground\25778_OneControl_Motorized_Data\Standard\ObjectCode\IDS-CAN_DTC_Manager.c.o -TE1uE -WmsgSd1106 -WmsgSd4301

  0000 37           [2]     PSHB  
  653:  #ifdef IDS_CAN_DTC_PAUSE_POWER_CYCLES
  654:  	if (Config.ProductionBlock.DtcByte != 0x00)
  0001 f60000       [3]     LDAB  Config:32
  0004 262c         [3/1]   BNE   *+46 ;abs = 0032
  655:  		return;
  656:  #endif
  657:  
  658:  	ASSERT(dtc < NUM_IDS_CAN_DTCS);
  0006 e680         [3]     LDAB  0,SP
  0008 c112         [1]     CMPB  #18
  000a 250d         [3/1]   BCS   *+15 ;abs = 0019
  000c cc0000       [2]     LDD   #"C:\Working\BitBucket\pr0003866-onecontrol-motorized-4pt-hydraulic-leveler-re-ground\Sources\IDS-CA
  000f 3b           [2]     PSHD  
  0010 cc0292       [2]     LDD   #658
  0013 4a000000     [7]     CALL  _IDSCore_AssertFailed,PAGE(_IDSCore_AssertFailed)
  0017 1b82         [2]     LEAS  2,SP
  659:  	if (dtc < NUM_IDS_CAN_DTCS)
  0019 e680         [3]     LDAB  0,SP
  001b c112         [1]     CMPB  #18
  001d 2413         [3/1]   BCC   *+21 ;abs = 0032
  660:  	{
  661:  		DTC.Debounce[dtc] = DEBOUNCE_MAX[dtc];
  001f ce0000       [2]     LDX   #DEBOUNCE_MAX
  0022 a6e5         [3]     LDAA  B,X
  0024 ce0000       [2]     LDX   #DTC:18
  0027 6ae5         [2]     STAA  B,X
  662:  		SetDTCStatus(dtc, 0x81);
  0029 37           [2]     PSHB  
  002a c681         [1]     LDAB  #129
  002c 4a000000     [7]     CALL  SetDTCStatus,PAGE(SetDTCStatus)
  0030 1b81         [2]     LEAS  1,SP
  663:  	}
  664:  }
  0032 32           [3]     PULA  
  0033 0a           [7]     RTC   
  665:  
  666:  void IDS_CAN_ClearDTC(IDS_CAN_DTC dtc)
  667:  {

Function: IDS_CAN_ClearDTC
Source  : C:\Working\BitBucket\pr0003866-onecontrol-motorized-4pt-hydraulic-leveler-re-ground\Sources\IDS-CAN_DTC_Manager.c
Options : -Cni -CPUHCS12 -DPPAGE_ADDR=0x15 -D__MAP_FLASH__ -Env"GENPATH=C:\Working\BitBucket\pr0003866-onecontrol-motorized-4pt-hydraulic-leveler-re-ground;C:\Working\BitBucket\pr0003866-onecontrol-motorized-4pt-hydraulic-leveler-re-ground\bin;C:\Working\BitBucket\pr0003866-onecontrol-motorized-4pt-hydraulic-leveler-re-ground\prm;C:\Working\BitBucket\pr0003866-onecontrol-motorized-4pt-hydraulic-leveler-re-ground\cmd;C:\Working\BitBucket\pr0003866-onecontrol-motorized-4pt-hydraulic-leveler-re-ground\Sources;C:\Program Files (x86)\Freescale\CWS12v5.1\lib\HC12c\lib;C:\Program Files (x86)\Freescale\CWS12v5.1\lib\HC12c\src;C:\Program Files (x86)\Freescale\CWS12v5.1\lib\HC12c\include" -Env"LIBPATH=C:\Program Files (x86)\Freescale\CWS12v5.1\lib\HC12c\include" -EnvOBJPATH=C:\Working\BitBucket\pr0003866-onecontrol-motorized-4pt-hydraulic-leveler-re-ground\bin -EnvTEXTPATH=C:\Working\BitBucket\pr0003866-onecontrol-motorized-4pt-hydraulic-leveler-re-ground\bin -Lasm=%n.lst -Mb -MapFlash -ObjN=C:\Working\BitBucket\pr0003866-onecontrol-motorized-4pt-hydraulic-leveler-re-ground\25778_OneControl_Motorized_Data\Standard\ObjectCode\IDS-CAN_DTC_Manager.c.o -TE1uE -WmsgSd1106 -WmsgSd4301

  0000 37           [2]     PSHB  
  668:  	ASSERT(dtc < NUM_IDS_CAN_DTCS);
  0001 c112         [1]     CMPB  #18
  0003 250d         [3/1]   BCS   *+15 ;abs = 0012
  0005 cc0000       [2]     LDD   #"C:\Working\BitBucket\pr0003866-onecontrol-motorized-4pt-hydraulic-leveler-re-ground\Sources\IDS-CA
  0008 3b           [2]     PSHD  
  0009 cc029c       [2]     LDD   #668
  000c 4a000000     [7]     CALL  _IDSCore_AssertFailed,PAGE(_IDSCore_AssertFailed)
  0010 1b82         [2]     LEAS  2,SP
  669:  	if (dtc < NUM_IDS_CAN_DTCS)
  0012 e680         [3]     LDAB  0,SP
  0014 c112         [1]     CMPB  #18
  0016 2413         [3/1]   BCC   *+21 ;abs = 002b
  670:  	{
  671:  		DTC.Debounce[dtc] = 0;
  0018 ce0000       [2]     LDX   #DTC:18
  001b 69e5         [2]     CLR   B,X
  672:  		SetDTCStatus(dtc, DTC.Status[dtc] & 0x7F);
  001d 37           [2]     PSHB  
  001e ce0000       [2]     LDX   #DTC
  0021 e6e5         [3]     LDAB  B,X
  0023 c47f         [1]     ANDB  #127
  0025 4a000000     [7]     CALL  SetDTCStatus,PAGE(SetDTCStatus)
  0029 1b81         [2]     LEAS  1,SP
  673:  	}
  674:  }
  002b 32           [3]     PULA  
  002c 0a           [7]     RTC   
  675:  
  676:  void IDS_CAN_MatureDTC(IDS_CAN_DTC dtc, uint8 dtc_detected)
  677:  {

Function: IDS_CAN_MatureDTC
Source  : C:\Working\BitBucket\pr0003866-onecontrol-motorized-4pt-hydraulic-leveler-re-ground\Sources\IDS-CAN_DTC_Manager.c
Options : -Cni -CPUHCS12 -DPPAGE_ADDR=0x15 -D__MAP_FLASH__ -Env"GENPATH=C:\Working\BitBucket\pr0003866-onecontrol-motorized-4pt-hydraulic-leveler-re-ground;C:\Working\BitBucket\pr0003866-onecontrol-motorized-4pt-hydraulic-leveler-re-ground\bin;C:\Working\BitBucket\pr0003866-onecontrol-motorized-4pt-hydraulic-leveler-re-ground\prm;C:\Working\BitBucket\pr0003866-onecontrol-motorized-4pt-hydraulic-leveler-re-ground\cmd;C:\Working\BitBucket\pr0003866-onecontrol-motorized-4pt-hydraulic-leveler-re-ground\Sources;C:\Program Files (x86)\Freescale\CWS12v5.1\lib\HC12c\lib;C:\Program Files (x86)\Freescale\CWS12v5.1\lib\HC12c\src;C:\Program Files (x86)\Freescale\CWS12v5.1\lib\HC12c\include" -Env"LIBPATH=C:\Program Files (x86)\Freescale\CWS12v5.1\lib\HC12c\include" -EnvOBJPATH=C:\Working\BitBucket\pr0003866-onecontrol-motorized-4pt-hydraulic-leveler-re-ground\bin -EnvTEXTPATH=C:\Working\BitBucket\pr0003866-onecontrol-motorized-4pt-hydraulic-leveler-re-ground\bin -Lasm=%n.lst -Mb -MapFlash -ObjN=C:\Working\BitBucket\pr0003866-onecontrol-motorized-4pt-hydraulic-leveler-re-ground\25778_OneControl_Motorized_Data\Standard\ObjectCode\IDS-CAN_DTC_Manager.c.o -TE1uE -WmsgSd1106 -WmsgSd4301

  0000 37           [2]     PSHB  
  678:  	ASSERT(dtc < NUM_IDS_CAN_DTCS);
  0001 e684         [3]     LDAB  4,SP
  0003 c112         [1]     CMPB  #18
  0005 250d         [3/1]   BCS   *+15 ;abs = 0014
  0007 cc0000       [2]     LDD   #"C:\Working\BitBucket\pr0003866-onecontrol-motorized-4pt-hydraulic-leveler-re-ground\Sources\IDS-CA
  000a 3b           [2]     PSHD  
  000b cc02a6       [2]     LDD   #678
  000e 4a000000     [7]     CALL  _IDSCore_AssertFailed,PAGE(_IDSCore_AssertFailed)
  0012 1b82         [2]     LEAS  2,SP
  679:  	if (dtc < NUM_IDS_CAN_DTCS)
  0014 e684         [3]     LDAB  4,SP
  0016 c112         [1]     CMPB  #18
  0018 2435         [3/1]   BCC   *+55 ;abs = 004f
  680:  	{
  681:  		if (dtc_detected)
  001a a680         [3]     LDAA  0,SP
  001c 2720         [3/1]   BEQ   *+34 ;abs = 003e
  682:  		{
  683:  			// increment debounce counter to maximum
  684:  			if (DTC.Debounce[dtc] < DEBOUNCE_MAX[dtc])
  001e ce0000       [2]     LDX   #DTC:18
  0021 a6e5         [3]     LDAA  B,X
  0023 ce0000       [2]     LDX   #DEBOUNCE_MAX
  0026 a1e5         [3]     CMPA  B,X
  0028 240e         [3/1]   BCC   *+16 ;abs = 0038
  685:  			{
  686:  				DTC.Debounce[dtc]++;
  002a ce0000       [2]     LDX   #DTC:18
  002d 62e5         [3]     INC   B,X
  687:  				if (DTC.Debounce[dtc] < DEBOUNCE_MAX[dtc])
  002f a6e5         [3]     LDAA  B,X
  0031 ce0000       [2]     LDX   #DEBOUNCE_MAX
  0034 a1e5         [3]     CMPA  B,X
  0036 2517         [3/1]   BCS   *+25 ;abs = 004f
  688:  					return; // not yet mature
  689:  			}
  690:  			IDS_CAN_SetDTC(dtc); // DTC has (re)matured
  0038 4a000000     [7]     CALL  IDS_CAN_SetDTC,PAGE(IDS_CAN_SetDTC)
  691:  		}
  003c 2011         [3]     BRA   *+19 ;abs = 004f
  692:  		else
  693:  		{
  694:  			// decrement debounce counter
  695:  			if (DTC.Debounce[dtc])
  003e ce0000       [2]     LDX   #DTC:18
  0041 a6e5         [3]     LDAA  B,X
  0043 2706         [3/1]   BEQ   *+8 ;abs = 004b
  696:  			{
  697:  				DTC.Debounce[dtc]--;
  0045 63e5         [3]     DEC   B,X
  698:  				if (DTC.Debounce[dtc])
  0047 a6e5         [3]     LDAA  B,X
  0049 2604         [3/1]   BNE   *+6 ;abs = 004f
  699:  					return; // not yet de-mature
  700:  			}
  701:  			IDS_CAN_ClearDTC(dtc); // DTC has cleared
  004b 4a000000     [7]     CALL  IDS_CAN_ClearDTC,PAGE(IDS_CAN_ClearDTC)
  702:  		}
  703:  	}
  704:  }
  004f 32           [3]     PULA  
  0050 0a           [7]     RTC   
  705:  
  706:  void IDS_CAN_ClearActiveDTCs(void)
  707:  {

Function: IDS_CAN_ClearActiveDTCs
Source  : C:\Working\BitBucket\pr0003866-onecontrol-motorized-4pt-hydraulic-leveler-re-ground\Sources\IDS-CAN_DTC_Manager.c
Options : -Cni -CPUHCS12 -DPPAGE_ADDR=0x15 -D__MAP_FLASH__ -Env"GENPATH=C:\Working\BitBucket\pr0003866-onecontrol-motorized-4pt-hydraulic-leveler-re-ground;C:\Working\BitBucket\pr0003866-onecontrol-motorized-4pt-hydraulic-leveler-re-ground\bin;C:\Working\BitBucket\pr0003866-onecontrol-motorized-4pt-hydraulic-leveler-re-ground\prm;C:\Working\BitBucket\pr0003866-onecontrol-motorized-4pt-hydraulic-leveler-re-ground\cmd;C:\Working\BitBucket\pr0003866-onecontrol-motorized-4pt-hydraulic-leveler-re-ground\Sources;C:\Program Files (x86)\Freescale\CWS12v5.1\lib\HC12c\lib;C:\Program Files (x86)\Freescale\CWS12v5.1\lib\HC12c\src;C:\Program Files (x86)\Freescale\CWS12v5.1\lib\HC12c\include" -Env"LIBPATH=C:\Program Files (x86)\Freescale\CWS12v5.1\lib\HC12c\include" -EnvOBJPATH=C:\Working\BitBucket\pr0003866-onecontrol-motorized-4pt-hydraulic-leveler-re-ground\bin -EnvTEXTPATH=C:\Working\BitBucket\pr0003866-onecontrol-motorized-4pt-hydraulic-leveler-re-ground\bin -Lasm=%n.lst -Mb -MapFlash -ObjN=C:\Working\BitBucket\pr0003866-onecontrol-motorized-4pt-hydraulic-leveler-re-ground\25778_OneControl_Motorized_Data\Standard\ObjectCode\IDS-CAN_DTC_Manager.c.o -TE1uE -WmsgSd1106 -WmsgSd4301

  708:  	IDS_CAN_DTC dtc;
  709:  	for (dtc=(IDS_CAN_DTC)0; dtc < NUM_IDS_CAN_DTCS; dtc++)
  0000 c7           [1]     CLRB  
  710:  		IDS_CAN_ClearDTC(dtc);
  0001 37           [2]     PSHB  
  0002 4a000000     [7]     CALL  IDS_CAN_ClearDTC,PAGE(IDS_CAN_ClearDTC)
  0006 33           [3]     PULB  
  0007 52           [1]     INCB  
  0008 c112         [1]     CMPB  #18
  000a 25f5         [3/1]   BCS   *-9 ;abs = 0001
  711:  }
  000c 0a           [7]     RTC   
  712:  
  713:  void IDS_CAN_ClearStoredDTCs(void)
  714:  {

Function: IDS_CAN_ClearStoredDTCs
Source  : C:\Working\BitBucket\pr0003866-onecontrol-motorized-4pt-hydraulic-leveler-re-ground\Sources\IDS-CAN_DTC_Manager.c
Options : -Cni -CPUHCS12 -DPPAGE_ADDR=0x15 -D__MAP_FLASH__ -Env"GENPATH=C:\Working\BitBucket\pr0003866-onecontrol-motorized-4pt-hydraulic-leveler-re-ground;C:\Working\BitBucket\pr0003866-onecontrol-motorized-4pt-hydraulic-leveler-re-ground\bin;C:\Working\BitBucket\pr0003866-onecontrol-motorized-4pt-hydraulic-leveler-re-ground\prm;C:\Working\BitBucket\pr0003866-onecontrol-motorized-4pt-hydraulic-leveler-re-ground\cmd;C:\Working\BitBucket\pr0003866-onecontrol-motorized-4pt-hydraulic-leveler-re-ground\Sources;C:\Program Files (x86)\Freescale\CWS12v5.1\lib\HC12c\lib;C:\Program Files (x86)\Freescale\CWS12v5.1\lib\HC12c\src;C:\Program Files (x86)\Freescale\CWS12v5.1\lib\HC12c\include" -Env"LIBPATH=C:\Program Files (x86)\Freescale\CWS12v5.1\lib\HC12c\include" -EnvOBJPATH=C:\Working\BitBucket\pr0003866-onecontrol-motorized-4pt-hydraulic-leveler-re-ground\bin -EnvTEXTPATH=C:\Working\BitBucket\pr0003866-onecontrol-motorized-4pt-hydraulic-leveler-re-ground\bin -Lasm=%n.lst -Mb -MapFlash -ObjN=C:\Working\BitBucket\pr0003866-onecontrol-motorized-4pt-hydraulic-leveler-re-ground\25778_OneControl_Motorized_Data\Standard\ObjectCode\IDS-CAN_DTC_Manager.c.o -TE1uE -WmsgSd1106 -WmsgSd4301

  715:  	IDS_CAN_DTC dtc;
  716:  	for (dtc=(IDS_CAN_DTC)0; dtc < NUM_IDS_CAN_DTCS; dtc++)
  0000 69af         [2]     CLR   1,-SP
  717:  	{
  718:  		if (!IS_ACTIVE(dtc))
  0002 e680         [3]     LDAB  0,SP
  0004 ce0000       [2]     LDX   #DTC
  0007 0ee58008     [4]     BRSET B,X,#128,*+12 ;abs = 0013
  719:  			SetDTCStatus(dtc, 0);
  000b 37           [2]     PSHB  
  000c c7           [1]     CLRB  
  000d 4a000000     [7]     CALL  SetDTCStatus,PAGE(SetDTCStatus)
  0011 1b81         [2]     LEAS  1,SP
  0013 6280         [3]     INC   0,SP
  0015 e680         [3]     LDAB  0,SP
  0017 c112         [1]     CMPB  #18
  0019 25e7         [3/1]   BCS   *-23 ;abs = 0002
  720:  	}
  721:  }
  001b 32           [3]     PULA  
  001c 0a           [7]     RTC   
  722:  
  723:  void IDS_CAN_ClearAllDTCs(void)
  724:  {

Function: IDS_CAN_ClearAllDTCs
Source  : C:\Working\BitBucket\pr0003866-onecontrol-motorized-4pt-hydraulic-leveler-re-ground\Sources\IDS-CAN_DTC_Manager.c
Options : -Cni -CPUHCS12 -DPPAGE_ADDR=0x15 -D__MAP_FLASH__ -Env"GENPATH=C:\Working\BitBucket\pr0003866-onecontrol-motorized-4pt-hydraulic-leveler-re-ground;C:\Working\BitBucket\pr0003866-onecontrol-motorized-4pt-hydraulic-leveler-re-ground\bin;C:\Working\BitBucket\pr0003866-onecontrol-motorized-4pt-hydraulic-leveler-re-ground\prm;C:\Working\BitBucket\pr0003866-onecontrol-motorized-4pt-hydraulic-leveler-re-ground\cmd;C:\Working\BitBucket\pr0003866-onecontrol-motorized-4pt-hydraulic-leveler-re-ground\Sources;C:\Program Files (x86)\Freescale\CWS12v5.1\lib\HC12c\lib;C:\Program Files (x86)\Freescale\CWS12v5.1\lib\HC12c\src;C:\Program Files (x86)\Freescale\CWS12v5.1\lib\HC12c\include" -Env"LIBPATH=C:\Program Files (x86)\Freescale\CWS12v5.1\lib\HC12c\include" -EnvOBJPATH=C:\Working\BitBucket\pr0003866-onecontrol-motorized-4pt-hydraulic-leveler-re-ground\bin -EnvTEXTPATH=C:\Working\BitBucket\pr0003866-onecontrol-motorized-4pt-hydraulic-leveler-re-ground\bin -Lasm=%n.lst -Mb -MapFlash -ObjN=C:\Working\BitBucket\pr0003866-onecontrol-motorized-4pt-hydraulic-leveler-re-ground\25778_OneControl_Motorized_Data\Standard\ObjectCode\IDS-CAN_DTC_Manager.c.o -TE1uE -WmsgSd1106 -WmsgSd4301

  725:  	IDS_CAN_DTC dtc;
  726:  	(void)memset(DTC.Debounce, 0, (uint16)sizeof(DTC.Debounce));
  0000 cc0000       [2]     LDD   #DTC:18
  0003 6cad         [2]     STD   3,-SP
  0005 c7           [1]     CLRB  
  0006 87           [1]     CLRA  
  0007 3b           [2]     PSHD  
  0008 c612         [1]     LDAB  #18
  000a 4a000000     [7]     CALL  memset,PAGE(memset)
  000e 1b84         [2]     LEAS  4,SP
  727:  	for (dtc=(IDS_CAN_DTC)0; dtc < NUM_IDS_CAN_DTCS; dtc++)
  0010 87           [1]     CLRA  
  728:  		SetDTCStatus(dtc, 0);
  0011 36           [2]     PSHA  
  0012 c7           [1]     CLRB  
  0013 6a81         [2]     STAA  1,SP
  0015 4a000000     [7]     CALL  SetDTCStatus,PAGE(SetDTCStatus)
  0019 e6a0         [3]     LDAB  1,+SP
  001b 52           [1]     INCB  
  001c c112         [1]     CMPB  #18
  001e b710         [1]     TFR   B,A
  0020 25ef         [3/1]   BCS   *-15 ;abs = 0011
  729:  }
  0022 32           [3]     PULA  
  0023 0a           [7]     RTC   
  730:  
  731:  void IDS_CAN_IncrementDTCCyclesCounter(void)
  732:  {

Function: IDS_CAN_IncrementDTCCyclesCounter
Source  : C:\Working\BitBucket\pr0003866-onecontrol-motorized-4pt-hydraulic-leveler-re-ground\Sources\IDS-CAN_DTC_Manager.c
Options : -Cni -CPUHCS12 -DPPAGE_ADDR=0x15 -D__MAP_FLASH__ -Env"GENPATH=C:\Working\BitBucket\pr0003866-onecontrol-motorized-4pt-hydraulic-leveler-re-ground;C:\Working\BitBucket\pr0003866-onecontrol-motorized-4pt-hydraulic-leveler-re-ground\bin;C:\Working\BitBucket\pr0003866-onecontrol-motorized-4pt-hydraulic-leveler-re-ground\prm;C:\Working\BitBucket\pr0003866-onecontrol-motorized-4pt-hydraulic-leveler-re-ground\cmd;C:\Working\BitBucket\pr0003866-onecontrol-motorized-4pt-hydraulic-leveler-re-ground\Sources;C:\Program Files (x86)\Freescale\CWS12v5.1\lib\HC12c\lib;C:\Program Files (x86)\Freescale\CWS12v5.1\lib\HC12c\src;C:\Program Files (x86)\Freescale\CWS12v5.1\lib\HC12c\include" -Env"LIBPATH=C:\Program Files (x86)\Freescale\CWS12v5.1\lib\HC12c\include" -EnvOBJPATH=C:\Working\BitBucket\pr0003866-onecontrol-motorized-4pt-hydraulic-leveler-re-ground\bin -EnvTEXTPATH=C:\Working\BitBucket\pr0003866-onecontrol-motorized-4pt-hydraulic-leveler-re-ground\bin -Lasm=%n.lst -Mb -MapFlash -ObjN=C:\Working\BitBucket\pr0003866-onecontrol-motorized-4pt-hydraulic-leveler-re-ground\25778_OneControl_Motorized_Data\Standard\ObjectCode\IDS-CAN_DTC_Manager.c.o -TE1uE -WmsgSd1106 -WmsgSd4301

  0000 3b           [2]     PSHD  
  733:  	// increment all counters for any DTC which is stored but is not presently active
  734:  	IDS_CAN_DTC dtc;
  735:  	for (dtc=(IDS_CAN_DTC)0; dtc < NUM_IDS_CAN_DTCS; dtc++)
  0001 6981         [2]     CLR   1,SP
  736:  	{
  737:  		if (IS_STORED(dtc))
  0003 e681         [3]     LDAB  1,SP
  0005 ce0000       [2]     LDX   #DTC
  0008 a6e5         [3]     LDAA  B,X
  000a 2714         [3/1]   BEQ   *+22 ;abs = 0020
  738:  		{
  739:  			uint8 val = DTC.Status[dtc] + 1;
  000c 42           [1]     INCA  
  000d 6a80         [2]     STAA  0,SP
  740:  			if (!(val & 0x7F))
  000f 0f807f02     [4]     BRCLR 0,SP,#127,*+6 ;abs = 0015
  0013 2002         [3]     BRA   *+4 ;abs = 0017
  741:  				val = 0; // clear the DTC on overflow
  0015 6980         [2]     CLR   0,SP
  742:  			SetDTCStatus(dtc, val);
  0017 37           [2]     PSHB  
  0018 e681         [3]     LDAB  1,SP
  001a 4a000000     [7]     CALL  SetDTCStatus,PAGE(SetDTCStatus)
  001e 1b81         [2]     LEAS  1,SP
  0020 6281         [3]     INC   1,SP
  0022 e681         [3]     LDAB  1,SP
  0024 c112         [1]     CMPB  #18
  0026 25db         [3/1]   BCS   *-35 ;abs = 0003
  743:  		}
  744:  	}
  745:  }
  0028 3a           [3]     PULD  
  0029 0a           [7]     RTC   
  746:  
  747:  ////////////////////////////////////////
  748:  ////////////////////////////////////////
  749:  ////////////////////////////////////////
  750:  ////////////////////////////////////////
  751:  
  752:  void _IDS_CAN_DTC_Init(void)
  753:  {

Function: _IDS_CAN_DTC_Init
Source  : C:\Working\BitBucket\pr0003866-onecontrol-motorized-4pt-hydraulic-leveler-re-ground\Sources\IDS-CAN_DTC_Manager.c
Options : -Cni -CPUHCS12 -DPPAGE_ADDR=0x15 -D__MAP_FLASH__ -Env"GENPATH=C:\Working\BitBucket\pr0003866-onecontrol-motorized-4pt-hydraulic-leveler-re-ground;C:\Working\BitBucket\pr0003866-onecontrol-motorized-4pt-hydraulic-leveler-re-ground\bin;C:\Working\BitBucket\pr0003866-onecontrol-motorized-4pt-hydraulic-leveler-re-ground\prm;C:\Working\BitBucket\pr0003866-onecontrol-motorized-4pt-hydraulic-leveler-re-ground\cmd;C:\Working\BitBucket\pr0003866-onecontrol-motorized-4pt-hydraulic-leveler-re-ground\Sources;C:\Program Files (x86)\Freescale\CWS12v5.1\lib\HC12c\lib;C:\Program Files (x86)\Freescale\CWS12v5.1\lib\HC12c\src;C:\Program Files (x86)\Freescale\CWS12v5.1\lib\HC12c\include" -Env"LIBPATH=C:\Program Files (x86)\Freescale\CWS12v5.1\lib\HC12c\include" -EnvOBJPATH=C:\Working\BitBucket\pr0003866-onecontrol-motorized-4pt-hydraulic-leveler-re-ground\bin -EnvTEXTPATH=C:\Working\BitBucket\pr0003866-onecontrol-motorized-4pt-hydraulic-leveler-re-ground\bin -Lasm=%n.lst -Mb -MapFlash -ObjN=C:\Working\BitBucket\pr0003866-onecontrol-motorized-4pt-hydraulic-leveler-re-ground\25778_OneControl_Motorized_Data\Standard\ObjectCode\IDS-CAN_DTC_Manager.c.o -TE1uE -WmsgSd1106 -WmsgSd4301

  754:  	// clear DTC RAM
  755:  	(void)memset(&DTC, 0, sizeof(DTC));
  0000 cc0000       [2]     LDD   #DTC
  0003 3b           [2]     PSHD  
  0004 c7           [1]     CLRB  
  0005 87           [1]     CLRA  
  0006 3b           [2]     PSHD  
  0007 c624         [1]     LDAB  #36
  0009 4a000000     [7]     CALL  memset,PAGE(memset)
  000d 1b84         [2]     LEAS  4,SP
  756:  
  757:  #ifdef IDS_CAN_DTC_NUM_STORAGE_BLOCKS
  758:  	if (LoadDTCsFromStorage())
  000f 4a000000     [7]     CALL  LoadDTCsFromStorage,PAGE(LoadDTCsFromStorage)
  0013 044105       [3]     TBEQ  B,*+8 ;abs = 001b
  759:  	{
  760:  		// looking good, increment cycles counter and move on
  761:  		IDS_CAN_IncrementDTCCyclesCounter();
  0016 4a000000     [7]     CALL  IDS_CAN_IncrementDTCCyclesCounter,PAGE(IDS_CAN_IncrementDTCCyclesCounter)
  762:  		return;
  001a 0a           [7]     RTC   
  763:  	}
  764:  
  765:  	// we get here in case of error
  766:  
  767:  	// restart DTC flushing from beginning
  768:  	Flush.Block = 0;
  769:  	Flush.Chunk = 0;
  001b c7           [1]     CLRB  
  001c 87           [1]     CLRA  
  001d 7c0000       [3]     STD   Flush:3
  770:  	Flush.SequenceNum = 0;
  0020 7c0000       [3]     STD   Flush:1
  771:  
  772:  	// clear out whatever got loaded into DTC RAM
  773:  	(void)memset(DTC.Status, 0, (uint16)sizeof(DTC.Status));
  0023 ce0000       [2]     LDX   #DTC
  0026 34           [2]     PSHX  
  0027 3b           [2]     PSHD  
  0028 c612         [1]     LDAB  #18
  002a 4a000000     [7]     CALL  memset,PAGE(memset)
  002e 1b84         [2]     LEAS  4,SP
  774:  #endif // IDS_CAN_DTC_NUM_STORAGE_BLOCKS
  775:  
  776:  	// if we get here, then DTC memory was wiped
  777:  	// we should set DTC_DTC_STORAGE_FAILURE if it exists
  778:  #undef DECLARE_DTC
  779:  #define DECLARE_DTC(dtc, debounce) dtc
  780:  #undef DEFINE_DTC
  781:  #define DEFINE_DTC(id, name) ((id) == 0x0001) ||
  782:  #if DECLARE_SUPPORTED_IDS_CAN_DTCS FALSE
  783:  	// indicate DTC storage has failed
  784:  	IDS_CAN_SetDTC(DTC_DTC_STORAGE_FAILURE);
  785:  #endif
  786:  
  787:  #ifdef IDS_CAN_DTC_PAUSE_POWER_CYCLES
  788:  	if ((Config.ProductionBlock.ProductionByte == 0x00) && (Config.ProductionBlock.DtcByte != 0x00))
  0030 f60000       [3]     LDAB  Config:18
  0033 2615         [3/1]   BNE   *+23 ;abs = 004a
  0035 f60000       [3]     LDAB  Config:32
  0038 2710         [3/1]   BEQ   *+18 ;abs = 004a
  789:  	{
  790:  		if (Config.ProductionBlock.DtcByte < (1 + IDS_CAN_DTC_PAUSE_POWER_CYCLES))
  003a c102         [1]     CMPB  #2
  003c 2405         [3/1]   BCC   *+7 ;abs = 0043
  791:  			Config.ProductionBlock.DtcByte++;
  003e 720000       [4]     INC   Config:32
  0041 2003         [3]     BRA   *+5 ;abs = 0046
  792:  		else
  793:  			Config.ProductionBlock.DtcByte = 0;
  0043 790000       [3]     CLR   Config:32
  794:  
  795:  		Config_ProductionBlock_Flush();
  0046 4a000000     [7]     CALL  Config_ProductionBlock_Flush,PAGE(Config_ProductionBlock_Flush)
  796:  	}
  797:  #endif
  798:  }
  004a 0a           [7]     RTC   
  799:  
  800:  ////////////////////////////////////////////////////////////////////////////////
  801:  ////////////////////////////////////////////////////////////////////////////////
  802:  ////////////////////////////////////////////////////////////////////////////////
  803:  ////////////////////////////////////////////////////////////////////////////////
  804:  
  805:  #endif // HEADER
  806:  #endif // DECLARE_SUPPORTED_IDS_CAN_DTCS
  807:  
