ANSI-C/cC++ Compiler for HC12 V-5.0.41 Build 10203, Jul 23 2010

    1:  // IDS CAN Device Status.c
    2:  // IDS CAN status message management
    3:  // Version 3.0
    4:  // (c) 2017, 2018 Innovative Design Solutions, Inc.
    5:  // All rights reserved
    6:  
    7:  // History
    8:  // Version 2.7   First stable version
    9:  // Version 2.8   Minor bugfix
   10:  // Version 3.0   IDS-CAN v3.0 Mar 2018
   11:  
   12:  #include "global.h"
   13:  
   14:  ////////////////////////////////////////////////////////////////////////////////
   15:  ////////////////////////////////////////////////////////////////////////////////
   16:  ////////////////////////////////////////////////////////////////////////////////
   17:  ////////////////////////////////////////////////////////////////////////////////
   18:  
   19:  #ifdef HEADER
   20:  
   21:  // private functions - do NOT call
   22:  void _IDS_CAN_DeviceStatus_Task(uint16 clock_ms);
   23:  
   24:  // public API
   25:  void IDS_CAN_SetDeviceStatus(IDS_CAN_DEVICE device, uint8 length, const uint8 * status);
   26:  
   27:  #else // HEADER
   28:  
   29:  ////////////////////////////////////////////////////////////////////////////////
   30:  ////////////////////////////////////////////////////////////////////////////////
   31:  ////////////////////////////////////////////////////////////////////////////////
   32:  ////////////////////////////////////////////////////////////////////////////////
   33:  
   34:  #if defined(__GNUC__)
   35:  #pragma GCC diagnostic push
   36:  #pragma GCC diagnostic ignored "-Wmissing-braces"
   37:  #endif
   38:  
   39:  ////////////////////////////////////////
   40:  ////////////////////////////////////////
   41:  ////////////////////////////////////////
   42:  ////////////////////////////////////////
   43:  
   44:  typedef struct { uint8 Data[8]; } STATUS;
   45:  
   46:  static uint8 Length[NUM_IDS_CAN_DEVICES] = {0};
   47:  static STATUS Status[NUM_IDS_CAN_DEVICES] = {0};
   48:  
   49:  ////////////////////////////////////////
   50:  ////////////////////////////////////////
   51:  ////////////////////////////////////////
   52:  ////////////////////////////////////////
   53:  
   54:  void IDS_CAN_SetDeviceStatus(IDS_CAN_DEVICE device, uint8 length, const uint8 * status)
   55:  {

Function: IDS_CAN_SetDeviceStatus
Source  : C:\Working\BitBucket\pr0003866-onecontrol-motorized-4pt-hydraulic-leveler-re-ground\Sources\IDS-CAN_Status.c
Options : -Cni -CPUHCS12 -DPPAGE_ADDR=0x15 -D__MAP_FLASH__ -Env"GENPATH=C:\Working\BitBucket\pr0003866-onecontrol-motorized-4pt-hydraulic-leveler-re-ground;C:\Working\BitBucket\pr0003866-onecontrol-motorized-4pt-hydraulic-leveler-re-ground\bin;C:\Working\BitBucket\pr0003866-onecontrol-motorized-4pt-hydraulic-leveler-re-ground\prm;C:\Working\BitBucket\pr0003866-onecontrol-motorized-4pt-hydraulic-leveler-re-ground\cmd;C:\Working\BitBucket\pr0003866-onecontrol-motorized-4pt-hydraulic-leveler-re-ground\Sources;C:\Program Files (x86)\Freescale\CWS12v5.1\lib\HC12c\lib;C:\Program Files (x86)\Freescale\CWS12v5.1\lib\HC12c\src;C:\Program Files (x86)\Freescale\CWS12v5.1\lib\HC12c\include" -Env"LIBPATH=C:\Program Files (x86)\Freescale\CWS12v5.1\lib\HC12c\include" -EnvOBJPATH=C:\Working\BitBucket\pr0003866-onecontrol-motorized-4pt-hydraulic-leveler-re-ground\bin -EnvTEXTPATH=C:\Working\BitBucket\pr0003866-onecontrol-motorized-4pt-hydraulic-leveler-re-ground\bin -Lasm=%n.lst -Mb -MapFlash -ObjN=C:\Working\BitBucket\pr0003866-onecontrol-motorized-4pt-hydraulic-leveler-re-ground\25778_OneControl_Motorized_Data\Standard\ObjectCode\IDS-CAN_Status.c.o -TE1uE -WmsgSd1106 -WmsgSd4301

  0000 3b           [2]     PSHD  
   56:  	ASSERT(device < NUM_IDS_CAN_DEVICES);
  0001 e686         [3]     LDAB  6,SP
  0003 c102         [1]     CMPB  #2
  0005 250d         [3/1]   BCS   *+15 ;abs = 0014
  0007 cc0000       [2]     LDD   #"C:\Working\BitBucket\pr0003866-onecontrol-motorized-4pt-hydraulic-leveler-re-ground\Sources\IDS-CA
  000a 3b           [2]     PSHD  
  000b c638         [1]     LDAB  #56
  000d 87           [1]     CLRA  
  000e 4a000000     [7]     CALL  _IDSCore_AssertFailed,PAGE(_IDSCore_AssertFailed)
  0012 1b82         [2]     LEAS  2,SP
   57:  	if (device < NUM_IDS_CAN_DEVICES)
  0014 e686         [3]     LDAB  6,SP
  0016 c102         [1]     CMPB  #2
  0018 2459         [3/1]   BCC   *+91 ;abs = 0073
   58:  	{
   59:  		ASSERT(status != NULL || length == 0);
  001a ec80         [3]     LDD   0,SP
  001c 2611         [3/1]   BNE   *+19 ;abs = 002f
  001e e685         [3]     LDAB  5,SP
  0020 270d         [3/1]   BEQ   *+15 ;abs = 002f
  0022 cc0000       [2]     LDD   #"C:\Working\BitBucket\pr0003866-onecontrol-motorized-4pt-hydraulic-leveler-re-ground\Sources\IDS-CA
  0025 3b           [2]     PSHD  
  0026 c63b         [1]     LDAB  #59
  0028 87           [1]     CLRA  
  0029 4a000000     [7]     CALL  _IDSCore_AssertFailed,PAGE(_IDSCore_AssertFailed)
  002d 1b82         [2]     LEAS  2,SP
   60:  		ASSERT(length <= 8);
  002f e685         [3]     LDAB  5,SP
  0031 c108         [1]     CMPB  #8
  0033 230d         [3/1]   BLS   *+15 ;abs = 0042
  0035 cc0000       [2]     LDD   #"C:\Working\BitBucket\pr0003866-onecontrol-motorized-4pt-hydraulic-leveler-re-ground\Sources\IDS-CA
  0038 3b           [2]     PSHD  
  0039 c63c         [1]     LDAB  #60
  003b 87           [1]     CLRA  
  003c 4a000000     [7]     CALL  _IDSCore_AssertFailed,PAGE(_IDSCore_AssertFailed)
  0040 1b82         [2]     LEAS  2,SP
   61:  		if (length > 8)
  0042 e685         [3]     LDAB  5,SP
  0044 c108         [1]     CMPB  #8
  0046 2304         [3/1]   BLS   *+6 ;abs = 004c
   62:  			length = 8; // no more than 8 data bytes
  0048 c608         [1]     LDAB  #8
  004a 6b85         [2]     STAB  5,SP
   63:  		Length[device] = length; // save length
  004c e686         [3]     LDAB  6,SP
  004e 87           [1]     CLRA  
  004f b745         [1]     TFR   D,X
  0051 e685         [3]     LDAB  5,SP
  0053 6be20000     [3]     STAB  Length,X
   64:  		if (status != NULL && length)
  0057 ed80         [3]     LDY   0,SP
  0059 2718         [3/1]   BEQ   *+26 ;abs = 0073
  005b 044115       [3]     TBEQ  B,*+24 ;abs = 0073
   65:  			(void) memcpy(&Status[device].Data[0], status, length); // copy status to local structure
  005e b7e5         [1]     EXG   Y,X
  0060 c603         [1]     LDAB  #3
  0062 160000       [4]     JSR   _ISHL
  0065 c30000       [2]     ADDD  #Status
  0068 3b           [2]     PSHD  
  0069 34           [2]     PSHX  
  006a e689         [3]     LDAB  9,SP
  006c 87           [1]     CLRA  
  006d 4a000000     [7]     CALL  memcpy,PAGE(memcpy)
  0071 1b84         [2]     LEAS  4,SP
   66:  	}
   67:  }
  0073 3a           [3]     PULD  
  0074 0a           [7]     RTC   
   68:  
   69:  ////////////////////////////////////////
   70:  ////////////////////////////////////////
   71:  ////////////////////////////////////////
   72:  ////////////////////////////////////////
   73:  
   74:  void _IDS_CAN_DeviceStatus_Task(uint16 clock_ms)
   75:  {

Function: _IDS_CAN_DeviceStatus_Task
Source  : C:\Working\BitBucket\pr0003866-onecontrol-motorized-4pt-hydraulic-leveler-re-ground\Sources\IDS-CAN_Status.c
Options : -Cni -CPUHCS12 -DPPAGE_ADDR=0x15 -D__MAP_FLASH__ -Env"GENPATH=C:\Working\BitBucket\pr0003866-onecontrol-motorized-4pt-hydraulic-leveler-re-ground;C:\Working\BitBucket\pr0003866-onecontrol-motorized-4pt-hydraulic-leveler-re-ground\bin;C:\Working\BitBucket\pr0003866-onecontrol-motorized-4pt-hydraulic-leveler-re-ground\prm;C:\Working\BitBucket\pr0003866-onecontrol-motorized-4pt-hydraulic-leveler-re-ground\cmd;C:\Working\BitBucket\pr0003866-onecontrol-motorized-4pt-hydraulic-leveler-re-ground\Sources;C:\Program Files (x86)\Freescale\CWS12v5.1\lib\HC12c\lib;C:\Program Files (x86)\Freescale\CWS12v5.1\lib\HC12c\src;C:\Program Files (x86)\Freescale\CWS12v5.1\lib\HC12c\include" -Env"LIBPATH=C:\Program Files (x86)\Freescale\CWS12v5.1\lib\HC12c\include" -EnvOBJPATH=C:\Working\BitBucket\pr0003866-onecontrol-motorized-4pt-hydraulic-leveler-re-ground\bin -EnvTEXTPATH=C:\Working\BitBucket\pr0003866-onecontrol-motorized-4pt-hydraulic-leveler-re-ground\bin -Lasm=%n.lst -Mb -MapFlash -ObjN=C:\Working\BitBucket\pr0003866-onecontrol-motorized-4pt-hydraulic-leveler-re-ground\25778_OneControl_Motorized_Data\Standard\ObjectCode\IDS-CAN_Status.c.o -TE1uE -WmsgSd1106 -WmsgSd4301

  0000 1b91         [2]     LEAS  -15,SP
  0002 3b           [2]     PSHD  
   76:  	static IDS_CAN_DEVICE Device = (IDS_CAN_DEVICE)0;
   77:  	static uint8 LastLength[NUM_IDS_CAN_DEVICES] = {0};
   78:  	static STATUS LastStatus[NUM_IDS_CAN_DEVICES] = {0};
   79:  	static uint16 LastTxTime[NUM_IDS_CAN_DEVICES] = {0};
   80:  	CAN_TX_MESSAGE msg;
   81:  	uint16 tx_rate_ms;
   82:  
   83:  	// cycle through all devices round robin
   84:  	Device++;
  0003 720000       [4]     INC   Device
   85:  	if (Device >= NUM_IDS_CAN_DEVICES)
  0006 f60000       [3]     LDAB  Device
  0009 c102         [1]     CMPB  #2
  000b 2503         [3/1]   BCS   *+5 ;abs = 0010
   86:  		Device = (IDS_CAN_DEVICE)0;
  000d 790000       [3]     CLR   Device
   87:  
   88:  	// get message length
   89:  	msg.Length = Length[Device];
  0010 f60000       [3]     LDAB  Device
  0013 ce0000       [2]     LDX   #Length
  0016 a6e5         [3]     LDAA  B,X
  0018 6a82         [2]     STAA  2,SP
   90:  	ASSERT(msg.Length <= 8);
  001a 8108         [1]     CMPA  #8
  001c 230d         [3/1]   BLS   *+15 ;abs = 002b
  001e cc0000       [2]     LDD   #"C:\Working\BitBucket\pr0003866-onecontrol-motorized-4pt-hydraulic-leveler-re-ground\Sources\IDS-CA
  0021 3b           [2]     PSHD  
  0022 c65a         [1]     LDAB  #90
  0024 87           [1]     CLRA  
  0025 4a000000     [7]     CALL  _IDSCore_AssertFailed,PAGE(_IDSCore_AssertFailed)
  0029 1b82         [2]     LEAS  2,SP
   91:  	if (msg.Length > 8)
  002b e682         [3]     LDAB  2,SP
  002d c108         [1]     CMPB  #8
  002f 2304         [3/1]   BLS   *+6 ;abs = 0035
   92:  		msg.Length = 8; // prevent bad things from happening
  0031 c608         [1]     LDAB  #8
  0033 6b82         [2]     STAB  2,SP
   93:  
   94:  	// if device is offline
   95:  	if (!IDS_CAN_IsDeviceOnline(Device))
  0035 f60000       [3]     LDAB  Device
  0038 4a000000     [7]     CALL  IDS_CAN_GetDeviceAddress,PAGE(IDS_CAN_GetDeviceAddress)
  003c 046119       [3]     TBNE  B,*+28 ;abs = 0058
   96:  	{
   97:  		// reset our TX cache
   98:  		LastLength[Device] = 0;
  003f 160000       [4]     JSR   _IDS_CAN_DeviceStatus_Task:0x013d
  0042 b745         [1]     TFR   D,X
  0044 6ae20000     [3]     STAA  LastLength,X
   99:  		LastTxTime[Device] = clock_ms ^ 0x8000;
  0048 b754         [1]     TFR   X,D
  004a 59           [1]     LSLD  
  004b b745         [1]     TFR   D,X
  004d ec80         [3]     LDD   0,SP
  004f 8880         [1]     EORA  #128
  0051 6ce20000     [3]     STD   LastTxTime,X
  100:  		return;
  0055 060000       [3]     JMP   _IDS_CAN_DeviceStatus_Task:0x0139
  101:  	}
  102:  
  103:  	// determine the transmit rate
  104:  	if (msg.Length != LastLength[Device] || memcmp(&Status[Device].Data[0], &LastStatus[Device].Data[0], msg.Length))
  0058 160000       [4]     JSR   _IDS_CAN_DeviceStatus_Task:0x013d
  005b b745         [1]     TFR   D,X
  005d e682         [3]     LDAB  2,SP
  005f e1e20000     [4]     CMPB  LastLength,X
  0063 261f         [3/1]   BNE   *+33 ;abs = 0084
  0065 b756         [1]     TFR   X,Y
  0067 c603         [1]     LDAB  #3
  0069 160000       [4]     JSR   _ISHL
  006c b745         [1]     TFR   D,X
  006e c30000       [2]     ADDD  #Status
  0071 3b           [2]     PSHD  
  0072 b754         [1]     TFR   X,D
  0074 c30000       [2]     ADDD  #LastStatus
  0077 3b           [2]     PSHD  
  0078 e686         [3]     LDAB  6,SP
  007a 87           [1]     CLRA  
  007b 4a000000     [7]     CALL  memcmp,PAGE(memcmp)
  007f 1b84         [2]     LEAS  4,SP
  0081 044414       [3]     TBEQ  D,*+23 ;abs = 0098
  105:  	{
  106:  		// status has changed -- fast update rate
  107:  		
  108:  		tx_rate_ms = (IDS_CAN_IsAnySessionOpen(Device) ? 50 : 333);
  0084 f60000       [3]     LDAB  Device
  0087 4a000000     [7]     CALL  IDS_CAN_IsAnySessionOpen,PAGE(IDS_CAN_IsAnySessionOpen)
  008b 046105       [3]     TBNE  B,*+8 ;abs = 0093
  008e cc014d       [2]     LDD   #333
  0091 2017         [3]     BRA   *+25 ;abs = 00aa
  0093 c632         [1]     LDAB  #50
  0095 87           [1]     CLRA  
  109:  	}
  0096 2012         [3]     BRA   *+20 ;abs = 00aa
  110:  	else
  111:  	{
  112:  		// status has not changed -- slow update rate
  113:  		tx_rate_ms = (IDS_CAN_IsAnySessionOpen(Device) ? 250 : 1000);
  0098 f60000       [3]     LDAB  Device
  009b 4a000000     [7]     CALL  IDS_CAN_IsAnySessionOpen,PAGE(IDS_CAN_IsAnySessionOpen)
  009f 046105       [3]     TBNE  B,*+8 ;abs = 00a7
  00a2 cc03e8       [2]     LDD   #1000
  00a5 2003         [3]     BRA   *+5 ;abs = 00aa
  00a7 c6fa         [1]     LDAB  #250
  00a9 87           [1]     CLRA  
  00aa 6c8f         [2]     STD   15,SP
  114:  	}
  115:  
  116:  	// is it time to transmit the status?
  117:  	if ((uint16)(clock_ms - LastTxTime[Device]) > tx_rate_ms)
  00ac 160000       [4]     JSR   _IDS_CAN_DeviceStatus_Task:0x013d
  00af 59           [1]     LSLD  
  00b0 b745         [1]     TFR   D,X
  00b2 ec80         [3]     LDD   0,SP
  00b4 a3e20000     [4]     SUBD  LastTxTime,X
  00b8 ac8f         [3]     CPD   15,SP
  00ba 237d         [3/1]   BLS   *+127 ;abs = 0139
  118:  	{
  119:  		// compose message and prepare transmit
  120:  		msg.ID = IDS_CAN_CreateCanId11(IDS_CAN_MESSAGE_TYPE_DEVICE_STATUS, IDS_CAN_GetDeviceAddress(Device));
  00bc c603         [1]     LDAB  #3
  00be 37           [2]     PSHB  
  00bf f60000       [3]     LDAB  Device
  00c2 4a000000     [7]     CALL  IDS_CAN_GetDeviceAddress,PAGE(IDS_CAN_GetDeviceAddress)
  00c6 4a000000     [7]     CALL  IDS_CAN_CreateCanId11,PAGE(IDS_CAN_CreateCanId11)
  00ca 1b81         [2]     LEAS  1,SP
  00cc 6c85         [2]     STD   5,SP
  00ce 6e83         [2]     STX   3,SP
  121:  		(void) memcpy(&msg.Data[0], &Status[Device].Data[0], msg.Length);
  00d0 1a87         [2]     LEAX  7,SP
  00d2 34           [2]     PSHX  
  00d3 0768         [4]     BSR   *+106 ;abs = 013d
  00d5 59           [1]     LSLD  
  00d6 59           [1]     LSLD  
  00d7 59           [1]     LSLD  
  00d8 c30000       [2]     ADDD  #Status
  00db 3b           [2]     PSHD  
  00dc e686         [3]     LDAB  6,SP
  00de 87           [1]     CLRA  
  00df 4a000000     [7]     CALL  memcpy,PAGE(memcpy)
  122:  		if (IDS_CAN_Tx(Device, &msg))
  00e3 f60000       [3]     LDAB  Device
  00e6 6ba2         [2]     STAB  3,+SP
  00e8 1a83         [2]     LEAX  3,SP
  00ea b754         [1]     TFR   X,D
  00ec 4a000000     [7]     CALL  IDS_CAN_Tx,PAGE(IDS_CAN_Tx)
  00f0 1b81         [2]     LEAS  1,SP
  00f2 044141       [3]     TBEQ  B,*+68 ;abs = 0136
  123:  		{
  124:  			// message successfully sent
  125:  			LastTxTime[Device] = OS_GetElapsedMilliseconds16(); // update time of last transmit
  00f5 0746         [4]     BSR   *+72 ;abs = 013d
  00f7 59           [1]     LSLD  
  00f8 3b           [2]     PSHD  
  00f9 160000       [4]     JSR   OS_GetElapsedMilliseconds16
  00fc 30           [3]     PULX  
  00fd 6ce20000     [3]     STD   LastTxTime,X
  126:  			LastLength[Device] = msg.Length;                    // remember last transmitted message length
  0101 073a         [4]     BSR   *+60 ;abs = 013d
  0103 b745         [1]     TFR   D,X
  0105 e682         [3]     LDAB  2,SP
  0107 6be20000     [3]     STAB  LastLength,X
  127:  			LastStatus[Device] = Status[Device];               // remember last transmitted status
  010b b756         [1]     TFR   X,Y
  010d c603         [1]     LDAB  #3
  010f 160000       [4]     JSR   _ISHL
  0112 b745         [1]     TFR   D,X
  0114 ede20000     [4]     LDY   Status:6,X
  0118 6de20000     [3]     STY   LastStatus:6,X
  011c ede20000     [4]     LDY   Status:4,X
  0120 6de20000     [3]     STY   LastStatus:4,X
  0124 ede20000     [4]     LDY   Status:2,X
  0128 6de20000     [3]     STY   LastStatus:2,X
  012c ede20000     [4]     LDY   Status,X
  0130 6de20000     [3]     STY   LastStatus,X
  128:  		}
  0134 2003         [3]     BRA   *+5 ;abs = 0139
  129:  		else
  130:  		{
  131:  			// we failed to transmit, but a message needs to go out
  132:  			// to prevent any further delay, we will continue to try and transmit this message until it gets out
  133:  			// so, we need to stay stuck on this device
  134:  			// we perform a little trick, rolling back the device by one count
  135:  			// that way, next time the same device will be checked
  136:  			Device--;
  0136 730000       [4]     DEC   Device
  137:  		}
  138:  	}
  139:  }
  0139 1bf011       [2]     LEAS  17,SP
  013c 0a           [7]     RTC   
  013d f60000       [3]     LDAB  Device
  0140 87           [1]     CLRA  
  0141 3d           [5]     RTS   
  140:  
  141:  ////////////////////////////////////////
  142:  ////////////////////////////////////////
  143:  ////////////////////////////////////////
  144:  ////////////////////////////////////////
  145:  
  146:  #if defined(__GNUC__)
  147:  #pragma GCC diagnostic pop
  148:  #endif
  149:  
  150:  ////////////////////////////////////////////////////////////////////////////////
  151:  ////////////////////////////////////////////////////////////////////////////////
  152:  ////////////////////////////////////////////////////////////////////////////////
  153:  ////////////////////////////////////////////////////////////////////////////////
  154:  
  155:  #endif // HEADER
  156:  
